﻿r1p1,r1p2,r1p3,r1p4,r1p5,r1p6,r1p7,r1p8,r1p9,r1p10,r1p11,r1p12,r1p13,r1p14,r1p15,r1p16,r1p17,r1p18,r1p19,r1p20,r1p21,r1p22,r1p23,r1p24,r1p25,r1p26,r1p27,r1p28,r1p29,r1p30,r1p31,r1p32,r1p33,r1p34,r1p35,r1p36,r1p37,r1p38,r1p39,r1p40,r1p41,r1p42,r1p43,r1p44,r1p45,r1p46,r1p47,r1p48,r1p49,r1p50,r2p1,r2p2,r2p3,r2p4,r2p5,r2p6,r2p7,r2p8,r2p9,r2p10,r2p11,r2p12,r2p13,r2p14,r2p15,r2p16,r2p17,r2p18,r2p19,r2p20,r2p21,r2p22,r2p23,r2p24,r2p25,r2p26,r2p27,r2p28,r2p29,r2p30,r2p31,r2p32,r2p33,r2p34,r2p35,r2p36,r2p37,r2p38,r2p39,r2p40,r2p41,r2p42,r2p43,r2p44,r2p45,r2p46,r2p47,r2p48,r2p49,r2p50
11.52,10.08,10.8,11.52,12.96,10.8,10.66,10.08,9.36,10.08,4,4.4,4.56,3.2,3.6,3.92,3.84,3.52,3.2,3.6,7.2,8.4,7.68,6.96,4.8,3.6,2.4,2.16,1.92,1.68,0.48,0.72,0.96,1.2,0.6,2.4,3.6,2.16,4.8,6,19.2,13.2,7.2,4.8,2.4,19.2,18,14.4,15.6,9.6,11.52,10.08,10.8,11.52,12.96,10.8,10.66,10.08,9.36,10.08,4,4.4,4.56,3.2,3.6,3.92,3.84,3.52,3.2,3.6,7.2,8.4,7.68,6.96,4.8,3.6,2.4,2.16,1.92,1.68,0.48,0.72,0.96,1.2,0.6,2.4,3.6,2.16,4.8,6,19.2,13.2,7.2,4.8,2.4,19.2,18,14.4,15.6,9.6
9.22,10.08,10.8,11.52,12.96,6.48,10.66,10.08,9.36,10.08,4,4.4,4.56,3.2,3.6,3.92,3.84,3.52,3.2,3.6,6.48,5.04,7.68,6.96,4.8,3.6,2.4,2.16,1.92,1.01,0.48,0.72,0.96,1.2,0.48,2.4,3.6,2.16,4.8,4.8,19.2,13.2,7.2,4.8,2.4,19.2,18,14.4,15.6,9.6,9.22,10.08,10.8,11.52,12.96,6.48,10.66,10.08,9.36,10.08,4,4.4,4.56,3.2,3.6,3.92,3.84,3.52,3.2,3.6,6.48,5.04,7.68,6.96,4.8,3.6,2.4,2.16,1.92,1.01,0.48,0.72,0.96,1.2,0.48,2.4,3.6,2.16,4.8,4.8,19.2,13.2,7.2,4.8,2.4,19.2,18,14.4,15.6,9.6
9.22,10.08,10.8,11.52,12.96,6.48,10.66,10.08,9.36,10.08,4,4.4,4.56,3.2,3.6,3.92,3.84,3.52,3.2,3.6,6.48,5.04,7.68,6.96,4.8,3.6,2.4,2.16,1.92,1.01,0.48,0.72,0.96,1.2,0.48,2.4,3.6,2.16,4.8,4.8,19.2,13.2,7.2,4.8,2.4,13.44,12.6,8.64,10.92,5.76,9.22,10.08,10.8,11.52,12.96,6.48,10.66,10.08,9.36,10.08,4,4.4,4.56,3.2,3.6,3.92,3.84,3.52,3.2,3.6,6.48,5.04,7.68,6.96,4.8,3.6,2.4,2.16,1.92,1.01,0.48,0.72,0.96,1.2,0.48,2.4,3.6,2.16,4.8,4.8,19.2,13.2,7.2,4.8,2.4,13.44,12.6,8.64,10.92,5.76
11.52,6.05,10.8,11.52,12.96,10.8,7.46,10.08,9.36,10.08,4,4.4,4.56,3.2,3.6,3.92,3.84,3.52,3.2,3.6,7.2,8.4,6.91,6.26,4.8,3.6,2.4,2.16,1.73,1.68,0.48,0.72,0.96,1.08,0.6,2.4,3.6,2.16,2.88,6,19.2,13.2,7.2,4.8,2.4,13.44,12.6,8.64,10.92,5.76,11.52,6.05,10.8,11.52,12.96,10.8,7.46,10.08,9.36,10.08,4,4.4,4.56,3.2,3.6,3.92,3.84,3.52,3.2,3.6,7.2,8.4,6.91,6.26,4.8,3.6,2.4,2.16,1.73,1.68,0.48,0.72,0.96,1.08,0.6,2.4,3.6,2.16,2.88,6,19.2,13.2,7.2,4.8,2.4,13.44,12.6,8.64,10.92,5.76
11.52,6.05,10.8,11.52,12.96,10.8,7.46,10.08,9.36,10.08,4,4.4,4.56,3.2,3.6,3.92,3.84,3.52,3.2,3.6,7.2,8.4,6.91,6.26,4.8,3.6,2.4,2.16,1.73,1.68,0.48,0.72,0.96,1.08,0.6,2.4,3.6,2.16,2.88,6,19.2,13.2,7.2,4.8,2.4,19.2,18,14.4,15.6,9.6,11.52,6.05,10.8,11.52,12.96,10.8,7.46,10.08,9.36,10.08,4,4.4,4.56,3.2,3.6,3.92,3.84,3.52,3.2,3.6,7.2,8.4,6.91,6.26,4.8,3.6,2.4,2.16,1.73,1.68,0.48,0.72,0.96,1.08,0.6,2.4,3.6,2.16,2.88,6,19.2,13.2,7.2,4.8,2.4,19.2,18,14.4,15.6,9.6
11.52,10.08,7.56,11.52,12.96,10.8,10.66,8.06,9.36,10.08,2.4,3.96,3.19,1.92,2.52,3.92,3.84,3.52,3.2,3.6,7.2,8.4,7.68,6.96,2.88,3.6,2.4,1.94,1.92,1.68,0.48,0.72,0.86,1.2,0.6,2.4,3.6,1.51,4.8,6,19.2,13.2,7.2,4.8,2.4,19.2,18,14.4,15.6,9.6,11.52,10.08,7.56,11.52,12.96,10.8,10.66,8.06,9.36,10.08,2.4,3.96,3.19,1.92,2.52,3.92,3.84,3.52,3.2,3.6,7.2,8.4,7.68,6.96,2.88,3.6,2.4,1.94,1.92,1.68,0.48,0.72,0.86,1.2,0.6,2.4,3.6,1.51,4.8,6,19.2,13.2,7.2,4.8,2.4,19.2,18,14.4,15.6,9.6
11.52,10.08,7.56,11.52,12.96,10.8,10.66,8.06,9.36,10.08,2.4,3.96,3.19,1.92,2.52,3.92,3.84,3.52,3.2,3.6,7.2,8.4,7.68,6.96,2.88,3.6,2.4,1.94,1.92,1.68,0.48,0.72,0.86,1.2,0.6,2.4,3.6,1.51,4.8,6,15.36,13.2,5.04,4.8,1.44,19.2,18,14.4,15.6,9.6,11.52,10.08,7.56,11.52,12.96,10.8,10.66,8.06,9.36,10.08,2.4,3.96,3.19,1.92,2.52,3.92,3.84,3.52,3.2,3.6,7.2,8.4,7.68,6.96,2.88,3.6,2.4,1.94,1.92,1.68,0.48,0.72,0.86,1.2,0.6,2.4,3.6,1.51,4.8,6,15.36,13.2,5.04,4.8,1.44,19.2,18,14.4,15.6,9.6
11.52,10.08,10.8,9.22,12.96,10.8,10.66,10.08,8.42,10.08,4,4.4,4.56,3.2,3.6,3.92,3.84,3.52,3.2,3.6,7.2,8.4,7.68,6.96,4.8,3.6,2.16,2.16,1.92,1.68,0.48,0.5,0.96,1.2,0.6,2.4,2.16,2.16,4.8,6,15.36,13.2,5.04,4.8,1.44,19.2,18,14.4,15.6,9.6,11.52,10.08,10.8,9.22,12.96,10.8,10.66,10.08,8.42,10.08,4,4.4,4.56,3.2,3.6,3.92,3.84,3.52,3.2,3.6,7.2,8.4,7.68,6.96,4.8,3.6,2.16,2.16,1.92,1.68,0.48,0.5,0.96,1.2,0.6,2.4,2.16,2.16,4.8,6,15.36,13.2,5.04,4.8,1.44,19.2,18,14.4,15.6,9.6
11.52,10.08,10.8,9.22,12.96,10.8,10.66,10.08,8.42,10.08,4,4.4,4.56,3.2,3.6,2.35,2.69,2.46,2.88,2.88,7.2,8.4,7.68,6.96,4.8,3.6,2.16,2.16,1.92,1.68,0.48,0.5,0.96,1.2,0.6,2.4,2.16,2.16,4.8,6,19.2,7.92,7.2,4.32,2.4,19.2,18,14.4,15.6,9.6,11.52,10.08,10.8,9.22,12.96,10.8,10.66,10.08,8.42,10.08,4,4.4,4.56,3.2,3.6,2.35,2.69,2.46,2.88,2.88,7.2,8.4,7.68,6.96,4.8,3.6,2.16,2.16,1.92,1.68,0.48,0.5,0.96,1.2,0.6,2.4,2.16,2.16,4.8,6,19.2,7.92,7.2,4.32,2.4,19.2,18,14.4,15.6,9.6
11.52,10.08,10.8,11.52,7.78,10.8,10.66,10.08,9.36,7.06,4,4.4,4.56,3.2,3.6,2.35,2.69,2.46,2.88,2.88,7.2,8.4,7.68,6.96,4.8,2.52,2.4,2.16,1.92,1.68,0.29,0.72,0.96,1.2,0.6,2.16,3.6,2.16,4.8,6,19.2,7.92,7.2,4.32,2.4,19.2,18,14.4,15.6,9.6,11.52,10.08,10.8,11.52,7.78,10.8,10.66,10.08,9.36,7.06,4,4.4,4.56,3.2,3.6,2.35,2.69,2.46,2.88,2.88,7.2,8.4,7.68,6.96,4.8,2.52,2.4,2.16,1.92,1.68,0.29,0.72,0.96,1.2,0.6,2.16,3.6,2.16,4.8,6,19.2,7.92,7.2,4.32,2.4,19.2,18,14.4,15.6,9.6
11.52,10.08,10.8,11.52,7.78,10.8,10.66,10.08,9.36,7.06,4,4.4,4.56,3.2,3.6,3.92,3.84,3.52,3.2,3.6,7.2,8.4,7.68,6.96,4.8,2.52,2.4,2.16,1.92,1.68,0.29,0.72,0.96,1.2,0.6,2.16,3.6,2.16,4.8,6,19.2,13.2,7.2,4.8,2.4,19.2,18,14.4,15.6,9.6,11.52,10.08,10.8,11.52,7.78,10.8,10.66,10.08,9.36,7.06,4,4.4,4.56,3.2,3.6,3.92,3.84,3.52,3.2,3.6,7.2,8.4,7.68,6.96,4.8,2.52,2.4,2.16,1.92,1.68,0.29,0.72,0.96,1.2,0.6,2.16,3.6,2.16,4.8,6,19.2,13.2,7.2,4.8,2.4,19.2,18,14.4,15.6,9.6
8.06,10.08,10.8,11.52,12.96,6.48,10.66,10.08,9.36,10.08,2.4,3.96,3.65,2.24,2.88,3.92,3.84,3.52,3.2,3.6,7.2,8.4,7.68,6.96,4.8,3.6,2.4,2.16,1.92,1.34,0.48,0.72,0.96,1.2,0.42,2.4,3.6,2.16,4.8,4.2,19.2,13.2,7.2,4.8,2.4,17.28,14.4,12.96,12.48,8.64,8.06,10.08,10.8,11.52,12.96,6.48,10.66,10.08,9.36,10.08,2.4,3.96,3.65,2.24,2.88,3.92,3.84,3.52,3.2,3.6,7.2,8.4,7.68,6.96,4.8,3.6,2.4,2.16,1.92,1.34,0.48,0.72,0.96,1.2,0.42,2.4,3.6,2.16,4.8,4.2,19.2,13.2,7.2,4.8,2.4,17.28,14.4,12.96,12.48,8.64
8.06,10.08,10.8,11.52,12.96,6.48,10.66,10.08,9.36,10.08,2.4,3.96,3.65,2.24,2.88,3.92,3.84,3.52,3.2,3.6,7.2,8.4,7.68,6.96,4.8,3.6,2.4,2.16,1.92,1.34,0.48,0.72,0.96,1.2,0.42,2.4,3.6,2.16,4.8,4.2,19.2,13.2,7.2,4.8,2.4,17.28,14.4,12.96,12.48,8.64,8.06,10.08,10.8,11.52,12.96,6.48,10.66,10.08,9.36,10.08,2.4,3.96,3.65,2.24,2.88,3.92,3.84,3.52,3.2,3.6,7.2,8.4,7.68,6.96,4.8,3.6,2.4,2.16,1.92,1.34,0.48,0.72,0.96,1.2,0.42,2.4,3.6,2.16,4.8,4.2,19.2,13.2,7.2,4.8,2.4,17.28,14.4,12.96,12.48,8.64
11.52,7.06,10.8,11.52,12.96,10.8,6.4,10.08,9.36,10.08,4,4.4,4.56,3.2,3.6,2.35,3.46,2.11,1.92,2.16,5.04,6.72,7.68,6.96,4.8,3.6,2.4,2.16,1.34,1.68,0.48,0.72,0.96,0.84,0.6,2.4,3.6,2.16,2.88,6,19.2,13.2,7.2,4.8,2.4,19.2,18,14.4,15.6,9.6,11.52,7.06,10.8,11.52,12.96,10.8,6.4,10.08,9.36,10.08,4,4.4,4.56,3.2,3.6,2.35,3.46,2.11,1.92,2.16,5.04,6.72,7.68,6.96,4.8,3.6,2.4,2.16,1.34,1.68,0.48,0.72,0.96,0.84,0.6,2.4,3.6,2.16,2.88,6,19.2,13.2,7.2,4.8,2.4,19.2,18,14.4,15.6,9.6
11.52,7.06,10.8,11.52,12.96,10.8,6.4,10.08,9.36,10.08,4,4.4,4.56,3.2,3.6,2.35,3.46,2.11,1.92,2.16,5.04,6.72,7.68,6.96,4.8,3.6,2.4,2.16,1.34,1.68,0.48,0.72,0.96,0.84,0.6,2.4,3.6,2.16,2.88,6,19.2,13.2,7.2,4.8,2.4,19.2,18,14.4,15.6,9.6,11.52,7.06,10.8,11.52,12.96,10.8,6.4,10.08,9.36,10.08,4,4.4,4.56,3.2,3.6,2.35,3.46,2.11,1.92,2.16,5.04,6.72,7.68,6.96,4.8,3.6,2.4,2.16,1.34,1.68,0.48,0.72,0.96,0.84,0.6,2.4,3.6,2.16,2.88,6,19.2,13.2,7.2,4.8,2.4,19.2,18,14.4,15.6,9.6
11.52,10.08,6.48,11.52,12.96,10.8,10.66,6.05,9.36,10.08,4,4.4,4.56,3.2,3.6,3.92,3.84,3.52,3.2,3.6,7.2,8.4,6.14,5.57,4.8,3.6,2.4,1.94,1.92,1.68,0.48,0.72,0.58,1.2,0.6,2.4,3.6,1.3,4.8,6,19.2,13.2,7.2,4.8,2.4,19.2,18,14.4,15.6,9.6,11.52,10.08,6.48,11.52,12.96,10.8,10.66,6.05,9.36,10.08,4,4.4,4.56,3.2,3.6,3.92,3.84,3.52,3.2,3.6,7.2,8.4,6.14,5.57,4.8,3.6,2.4,1.94,1.92,1.68,0.48,0.72,0.58,1.2,0.6,2.4,3.6,1.3,4.8,6,19.2,13.2,7.2,4.8,2.4,19.2,18,14.4,15.6,9.6
11.52,10.08,6.48,11.52,12.96,10.8,10.66,6.05,9.36,10.08,4,4.4,4.56,3.2,3.6,3.92,3.84,3.52,3.2,3.6,7.2,8.4,6.14,5.57,4.8,3.6,2.4,1.94,1.92,1.68,0.48,0.72,0.58,1.2,0.6,2.4,3.6,1.3,4.8,6,11.52,13.2,4.32,4.8,1.44,19.2,18,14.4,15.6,9.6,11.52,10.08,6.48,11.52,12.96,10.8,10.66,6.05,9.36,10.08,4,4.4,4.56,3.2,3.6,3.92,3.84,3.52,3.2,3.6,7.2,8.4,6.14,5.57,4.8,3.6,2.4,1.94,1.92,1.68,0.48,0.72,0.58,1.2,0.6,2.4,3.6,1.3,4.8,6,11.52,13.2,4.32,4.8,1.44,19.2,18,14.4,15.6,9.6
11.52,10.08,10.8,6.91,12.96,10.8,10.66,10.08,7.49,10.08,4,4.4,4.56,3.2,3.6,3.92,3.84,3.52,3.2,3.6,7.2,8.4,7.68,6.96,2.88,3.6,1.68,2.16,1.92,1.68,0.48,0.58,0.96,1.2,0.6,2.4,2.88,2.16,4.8,6,11.52,13.2,4.32,4.8,1.44,19.2,18,14.4,15.6,9.6,11.52,10.08,10.8,6.91,12.96,10.8,10.66,10.08,7.49,10.08,4,4.4,4.56,3.2,3.6,3.92,3.84,3.52,3.2,3.6,7.2,8.4,7.68,6.96,2.88,3.6,1.68,2.16,1.92,1.68,0.48,0.58,0.96,1.2,0.6,2.4,2.88,2.16,4.8,6,11.52,13.2,4.32,4.8,1.44,19.2,18,14.4,15.6,9.6
11.52,10.08,10.8,6.91,12.96,10.8,10.66,10.08,7.49,10.08,4,4.4,4.56,3.2,3.6,3.92,3.84,3.52,3.2,3.6,7.2,8.4,7.68,6.96,2.88,3.6,1.68,2.16,1.92,1.68,0.48,0.58,0.96,1.2,0.6,2.4,2.88,2.16,4.8,6,19.2,9.24,7.2,2.88,2.4,19.2,18,14.4,15.6,9.6,11.52,10.08,10.8,6.91,12.96,10.8,10.66,10.08,7.49,10.08,4,4.4,4.56,3.2,3.6,3.92,3.84,3.52,3.2,3.6,7.2,8.4,7.68,6.96,2.88,3.6,1.68,2.16,1.92,1.68,0.48,0.58,0.96,1.2,0.6,2.4,2.88,2.16,4.8,6,19.2,9.24,7.2,2.88,2.4,19.2,18,14.4,15.6,9.6
11.52,10.08,10.8,11.52,11.66,10.8,10.66,10.08,9.36,6.05,4,4.4,4.56,3.2,3.6,3.92,3.84,3.52,3.2,3.6,7.2,8.4,7.68,6.96,4.8,3.24,2.4,2.16,1.92,1.68,0.34,0.72,0.96,1.2,0.6,1.68,3.6,2.16,4.8,6,19.2,9.24,7.2,2.88,2.4,19.2,18,14.4,15.6,9.6,11.52,10.08,10.8,11.52,11.66,10.8,10.66,10.08,9.36,6.05,4,4.4,4.56,3.2,3.6,3.92,3.84,3.52,3.2,3.6,7.2,8.4,7.68,6.96,4.8,3.24,2.4,2.16,1.92,1.68,0.34,0.72,0.96,1.2,0.6,1.68,3.6,2.16,4.8,6,19.2,9.24,7.2,2.88,2.4,19.2,18,14.4,15.6,9.6
11.52,10.08,10.8,11.52,11.66,10.8,10.66,10.08,9.36,6.05,4,4.4,4.56,3.2,3.6,3.92,3.84,3.52,3.2,3.6,7.2,8.4,7.68,6.96,4.8,3.24,2.4,2.16,1.92,1.68,0.34,0.72,0.96,1.2,0.6,1.68,3.6,2.16,4.8,6,19.2,13.2,7.2,4.8,2.4,15.36,12.6,8.64,12.48,5.76,11.52,10.08,10.8,11.52,11.66,10.8,10.66,10.08,9.36,6.05,4,4.4,4.56,3.2,3.6,3.92,3.84,3.52,3.2,3.6,7.2,8.4,7.68,6.96,4.8,3.24,2.4,2.16,1.92,1.68,0.34,0.72,0.96,1.2,0.6,1.68,3.6,2.16,4.8,6,19.2,13.2,7.2,4.8,2.4,15.36,12.6,8.64,12.48,5.76
9.22,10.08,10.8,11.52,12.96,9.72,10.66,10.08,9.36,10.08,2.4,2.64,3.19,2.24,2.88,3.92,3.84,3.52,3.2,3.6,7.2,8.4,7.68,6.96,4.8,3.6,2.4,2.16,1.92,1.18,0.48,0.72,0.96,1.2,0.54,2.4,3.6,2.16,4.8,4.8,19.2,13.2,7.2,4.8,2.4,15.36,12.6,8.64,12.48,5.76,9.22,10.08,10.8,11.52,12.96,9.72,10.66,10.08,9.36,10.08,2.4,2.64,3.19,2.24,2.88,3.92,3.84,3.52,3.2,3.6,7.2,8.4,7.68,6.96,4.8,3.6,2.4,2.16,1.92,1.18,0.48,0.72,0.96,1.2,0.54,2.4,3.6,2.16,4.8,4.8,19.2,13.2,7.2,4.8,2.4,15.36,12.6,8.64,12.48,5.76
9.22,10.08,10.8,11.52,12.96,9.72,10.66,10.08,9.36,10.08,2.4,2.64,3.19,2.24,2.88,3.92,3.84,3.52,3.2,3.6,7.2,8.4,7.68,6.96,4.8,3.6,2.4,2.16,1.92,1.18,0.48,0.72,0.96,1.2,0.54,2.4,3.6,2.16,4.8,4.8,19.2,13.2,7.2,4.8,2.4,19.2,18,14.4,15.6,9.6,9.22,10.08,10.8,11.52,12.96,9.72,10.66,10.08,9.36,10.08,2.4,2.64,3.19,2.24,2.88,3.92,3.84,3.52,3.2,3.6,7.2,8.4,7.68,6.96,4.8,3.6,2.4,2.16,1.92,1.18,0.48,0.72,0.96,1.2,0.54,2.4,3.6,2.16,4.8,4.8,19.2,13.2,7.2,4.8,2.4,19.2,18,14.4,15.6,9.6
11.52,8.06,10.8,11.52,12.96,10.8,9.59,10.08,9.36,10.08,4,4.4,4.56,3.2,3.6,3.53,2.3,2.82,2.24,3.24,4.32,5.88,7.68,6.96,4.8,3.6,2.4,2.16,1.15,1.68,0.48,0.72,0.96,0.72,0.6,2.4,3.6,2.16,2.88,6,19.2,13.2,7.2,4.8,2.4,19.2,18,14.4,15.6,9.6,11.52,8.06,10.8,11.52,12.96,10.8,9.59,10.08,9.36,10.08,4,4.4,4.56,3.2,3.6,3.53,2.3,2.82,2.24,3.24,4.32,5.88,7.68,6.96,4.8,3.6,2.4,2.16,1.15,1.68,0.48,0.72,0.96,0.72,0.6,2.4,3.6,2.16,2.88,6,19.2,13.2,7.2,4.8,2.4,19.2,18,14.4,15.6,9.6
11.52,8.06,10.8,11.52,12.96,10.8,9.59,10.08,9.36,10.08,4,4.4,4.56,3.2,3.6,3.53,2.3,2.82,2.24,3.24,4.32,5.88,7.68,6.96,4.8,3.6,2.4,2.16,1.15,1.68,0.48,0.72,0.96,0.72,0.6,2.4,3.6,2.16,2.88,6,19.2,13.2,7.2,4.8,2.4,19.2,18,14.4,15.6,9.6,11.52,8.06,10.8,11.52,12.96,10.8,9.59,10.08,9.36,10.08,4,4.4,4.56,3.2,3.6,3.53,2.3,2.82,2.24,3.24,4.32,5.88,7.68,6.96,4.8,3.6,2.4,2.16,1.15,1.68,0.48,0.72,0.96,0.72,0.6,2.4,3.6,2.16,2.88,6,19.2,13.2,7.2,4.8,2.4,19.2,18,14.4,15.6,9.6
11.52,10.08,8.64,11.52,12.96,10.8,10.66,7.06,9.36,10.08,4,4.4,4.56,3.2,3.6,3.92,3.84,3.52,3.2,3.6,7.2,8.4,6.14,5.57,4.8,3.6,2.4,1.3,1.92,1.68,0.48,0.72,0.67,1.2,0.6,2.4,3.6,1.51,4.8,6,19.2,13.2,7.2,4.8,2.4,19.2,18,14.4,15.6,9.6,11.52,10.08,8.64,11.52,12.96,10.8,10.66,7.06,9.36,10.08,4,4.4,4.56,3.2,3.6,3.92,3.84,3.52,3.2,3.6,7.2,8.4,6.14,5.57,4.8,3.6,2.4,1.3,1.92,1.68,0.48,0.72,0.67,1.2,0.6,2.4,3.6,1.51,4.8,6,19.2,13.2,7.2,4.8,2.4,19.2,18,14.4,15.6,9.6
11.52,10.08,8.64,11.52,12.96,10.8,10.66,7.06,9.36,10.08,4,4.4,4.56,3.2,3.6,3.92,3.84,3.52,3.2,3.6,7.2,8.4,6.14,5.57,4.8,3.6,2.4,1.3,1.92,1.68,0.48,0.72,0.67,1.2,0.6,2.4,3.6,1.51,4.8,6,13.44,13.2,5.04,4.8,1.44,19.2,18,14.4,15.6,9.6,11.52,10.08,8.64,11.52,12.96,10.8,10.66,7.06,9.36,10.08,4,4.4,4.56,3.2,3.6,3.92,3.84,3.52,3.2,3.6,7.2,8.4,6.14,5.57,4.8,3.6,2.4,1.3,1.92,1.68,0.48,0.72,0.67,1.2,0.6,2.4,3.6,1.51,4.8,6,13.44,13.2,5.04,4.8,1.44,19.2,18,14.4,15.6,9.6
11.52,10.08,10.8,10.37,12.96,10.8,10.66,10.08,8.42,10.08,4,4.4,4.56,3.2,3.6,3.92,3.84,3.52,3.2,3.6,7.2,8.4,7.68,6.96,3.84,3.6,1.44,2.16,1.92,1.68,0.48,0.65,0.96,1.2,0.6,2.4,3.24,2.16,4.8,6,13.44,13.2,5.04,4.8,1.44,19.2,18,14.4,15.6,9.6,11.52,10.08,10.8,10.37,12.96,10.8,10.66,10.08,8.42,10.08,4,4.4,4.56,3.2,3.6,3.92,3.84,3.52,3.2,3.6,7.2,8.4,7.68,6.96,3.84,3.6,1.44,2.16,1.92,1.68,0.48,0.65,0.96,1.2,0.6,2.4,3.24,2.16,4.8,6,13.44,13.2,5.04,4.8,1.44,19.2,18,14.4,15.6,9.6
11.52,10.08,10.8,10.37,12.96,10.8,10.66,10.08,8.42,10.08,4,4.4,4.56,3.2,3.6,3.92,3.84,3.52,3.2,3.6,7.2,8.4,7.68,6.96,3.84,3.6,1.44,2.16,1.92,1.68,0.48,0.65,0.96,1.2,0.6,2.4,3.24,2.16,4.8,6,19.2,11.88,7.2,3.84,2.4,19.2,18,14.4,15.6,9.6,11.52,10.08,10.8,10.37,12.96,10.8,10.66,10.08,8.42,10.08,4,4.4,4.56,3.2,3.6,3.92,3.84,3.52,3.2,3.6,7.2,8.4,7.68,6.96,3.84,3.6,1.44,2.16,1.92,1.68,0.48,0.65,0.96,1.2,0.6,2.4,3.24,2.16,4.8,6,19.2,11.88,7.2,3.84,2.4,19.2,18,14.4,15.6,9.6
11.52,10.08,10.8,11.52,11.66,10.8,10.66,10.08,9.36,9.07,4,4.4,4.56,3.2,3.6,3.92,3.84,3.52,3.2,3.6,7.2,8.4,7.68,6.96,4.8,2.88,2.4,2.16,1.92,1.68,0.34,0.72,0.96,1.2,0.6,1.44,3.6,2.16,4.8,6,19.2,11.88,7.2,3.84,2.4,15.36,16.2,8.64,14.04,8.64,11.52,10.08,10.8,11.52,11.66,10.8,10.66,10.08,9.36,9.07,4,4.4,4.56,3.2,3.6,3.92,3.84,3.52,3.2,3.6,7.2,8.4,7.68,6.96,4.8,2.88,2.4,2.16,1.92,1.68,0.34,0.72,0.96,1.2,0.6,1.44,3.6,2.16,4.8,6,19.2,11.88,7.2,3.84,2.4,15.36,16.2,8.64,14.04,8.64
11.52,10.08,10.8,11.52,11.66,10.8,10.66,10.08,9.36,9.07,4,4.4,4.56,3.2,3.6,3.92,3.84,3.52,3.2,3.6,7.2,8.4,7.68,6.96,4.8,2.88,2.4,2.16,1.92,1.68,0.34,0.72,0.96,1.2,0.6,1.44,3.6,2.16,4.8,6,19.2,13.2,7.2,4.8,2.4,15.36,16.2,8.64,14.04,8.64,11.52,10.08,10.8,11.52,11.66,10.8,10.66,10.08,9.36,9.07,4,4.4,4.56,3.2,3.6,3.92,3.84,3.52,3.2,3.6,7.2,8.4,7.68,6.96,4.8,2.88,2.4,2.16,1.92,1.68,0.34,0.72,0.96,1.2,0.6,1.44,3.6,2.16,4.8,6,19.2,13.2,7.2,4.8,2.4,15.36,16.2,8.64,14.04,8.64
8.06,10.08,10.8,11.52,12.96,6.48,10.66,10.08,9.36,10.08,3.2,3.52,3.19,2.56,2.16,3.92,3.84,3.52,3.2,3.6,7.2,8.4,7.68,6.96,4.8,3.6,2.4,2.16,1.92,1.51,0.48,0.72,0.96,1.2,0.42,2.4,3.6,2.16,4.8,4.2,19.2,13.2,7.2,4.8,2.4,19.2,18,14.4,15.6,9.6,8.06,10.08,10.8,11.52,12.96,6.48,10.66,10.08,9.36,10.08,3.2,3.52,3.19,2.56,2.16,3.92,3.84,3.52,3.2,3.6,7.2,8.4,7.68,6.96,4.8,3.6,2.4,2.16,1.92,1.51,0.48,0.72,0.96,1.2,0.42,2.4,3.6,2.16,4.8,4.2,19.2,13.2,7.2,4.8,2.4,19.2,18,14.4,15.6,9.6
8.06,10.08,10.8,11.52,12.96,6.48,10.66,10.08,9.36,10.08,3.2,3.52,3.19,2.56,2.16,3.92,3.84,3.52,3.2,3.6,7.2,8.4,7.68,6.96,4.8,3.6,2.4,2.16,1.92,1.51,0.48,0.72,0.96,1.2,0.42,2.4,3.6,2.16,4.8,4.2,17.28,13.2,6.48,4.8,1.44,19.2,18,14.4,15.6,9.6,8.06,10.08,10.8,11.52,12.96,6.48,10.66,10.08,9.36,10.08,3.2,3.52,3.19,2.56,2.16,3.92,3.84,3.52,3.2,3.6,7.2,8.4,7.68,6.96,4.8,3.6,2.4,2.16,1.92,1.51,0.48,0.72,0.96,1.2,0.42,2.4,3.6,2.16,4.8,4.2,17.28,13.2,6.48,4.8,1.44,19.2,18,14.4,15.6,9.6
11.52,8.06,10.8,11.52,12.96,10.8,7.46,10.08,9.36,10.08,4,4.4,4.56,3.2,3.6,3.14,2.3,3.17,2.24,2.16,7.2,8.4,7.68,6.96,4.8,3.6,2.4,2.16,1.34,1.68,0.48,0.72,0.96,0.84,0.6,2.4,3.6,2.16,3.84,6,17.28,13.2,6.48,4.8,1.44,19.2,18,14.4,15.6,9.6,11.52,8.06,10.8,11.52,12.96,10.8,7.46,10.08,9.36,10.08,4,4.4,4.56,3.2,3.6,3.14,2.3,3.17,2.24,2.16,7.2,8.4,7.68,6.96,4.8,3.6,2.4,2.16,1.34,1.68,0.48,0.72,0.96,0.84,0.6,2.4,3.6,2.16,3.84,6,17.28,13.2,6.48,4.8,1.44,19.2,18,14.4,15.6,9.6
11.52,8.06,10.8,11.52,12.96,10.8,7.46,10.08,9.36,10.08,4,4.4,4.56,3.2,3.6,3.14,2.3,3.17,2.24,2.16,7.2,8.4,7.68,6.96,4.8,3.6,2.4,2.16,1.34,1.68,0.48,0.72,0.96,0.84,0.6,2.4,3.6,2.16,3.84,6,19.2,11.88,7.2,4.32,2.4,19.2,18,14.4,15.6,9.6,11.52,8.06,10.8,11.52,12.96,10.8,7.46,10.08,9.36,10.08,4,4.4,4.56,3.2,3.6,3.14,2.3,3.17,2.24,2.16,7.2,8.4,7.68,6.96,4.8,3.6,2.4,2.16,1.34,1.68,0.48,0.72,0.96,0.84,0.6,2.4,3.6,2.16,3.84,6,19.2,11.88,7.2,4.32,2.4,19.2,18,14.4,15.6,9.6
11.52,10.08,6.48,11.52,12.96,10.8,10.66,7.06,9.36,10.08,4,4.4,4.56,3.2,3.6,3.92,3.84,3.52,3.2,3.6,7.2,8.4,7.68,6.96,4.8,3.6,2.4,1.51,1.92,1.68,0.48,0.72,0.86,1.2,0.6,2.4,3.6,1.94,4.8,6,19.2,11.88,7.2,4.32,2.4,19.2,18,14.4,15.6,9.6,11.52,10.08,6.48,11.52,12.96,10.8,10.66,7.06,9.36,10.08,4,4.4,4.56,3.2,3.6,3.92,3.84,3.52,3.2,3.6,7.2,8.4,7.68,6.96,4.8,3.6,2.4,1.51,1.92,1.68,0.48,0.72,0.86,1.2,0.6,2.4,3.6,1.94,4.8,6,19.2,11.88,7.2,4.32,2.4,19.2,18,14.4,15.6,9.6
11.52,10.08,6.48,11.52,12.96,10.8,10.66,7.06,9.36,10.08,4,4.4,4.56,3.2,3.6,3.92,3.84,3.52,3.2,3.6,4.32,6.72,7.68,6.96,4.8,3.6,2.4,1.51,1.92,1.68,0.48,0.72,0.86,1.2,0.6,2.4,3.6,1.94,4.8,6,13.44,13.2,5.04,4.8,1.44,19.2,18,14.4,15.6,9.6,11.52,10.08,6.48,11.52,12.96,10.8,10.66,7.06,9.36,10.08,4,4.4,4.56,3.2,3.6,3.92,3.84,3.52,3.2,3.6,4.32,6.72,7.68,6.96,4.8,3.6,2.4,1.51,1.92,1.68,0.48,0.72,0.86,1.2,0.6,2.4,3.6,1.94,4.8,6,13.44,13.2,5.04,4.8,1.44,19.2,18,14.4,15.6,9.6
11.52,10.08,10.8,10.37,12.96,10.8,10.66,10.08,7.49,10.08,4,4.4,4.56,3.2,3.6,3.92,3.84,3.52,3.2,3.6,4.32,6.72,7.68,6.96,4.8,3.6,2.16,2.16,1.92,1.68,0.48,0.65,0.96,1.2,0.6,2.4,3.24,2.16,4.8,6,13.44,13.2,5.04,4.8,1.44,19.2,18,14.4,15.6,9.6,11.52,10.08,10.8,10.37,12.96,10.8,10.66,10.08,7.49,10.08,4,4.4,4.56,3.2,3.6,3.92,3.84,3.52,3.2,3.6,4.32,6.72,7.68,6.96,4.8,3.6,2.16,2.16,1.92,1.68,0.48,0.65,0.96,1.2,0.6,2.4,3.24,2.16,4.8,6,13.44,13.2,5.04,4.8,1.44,19.2,18,14.4,15.6,9.6
11.52,10.08,10.8,10.37,12.96,10.8,10.66,10.08,7.49,10.08,4,4.4,4.56,3.2,3.6,3.92,3.84,3.52,3.2,3.6,7.2,8.4,6.14,4.18,4.8,3.6,2.16,2.16,1.92,1.68,0.48,0.65,0.96,1.2,0.6,2.4,3.24,2.16,4.8,6,19.2,9.24,7.2,4.32,2.4,19.2,18,14.4,15.6,9.6,11.52,10.08,10.8,10.37,12.96,10.8,10.66,10.08,7.49,10.08,4,4.4,4.56,3.2,3.6,3.92,3.84,3.52,3.2,3.6,7.2,8.4,6.14,4.18,4.8,3.6,2.16,2.16,1.92,1.68,0.48,0.65,0.96,1.2,0.6,2.4,3.24,2.16,4.8,6,19.2,9.24,7.2,4.32,2.4,19.2,18,14.4,15.6,9.6
11.52,10.08,10.8,11.52,10.37,10.8,10.66,10.08,9.36,6.05,4,4.4,4.56,3.2,3.6,3.92,3.84,3.52,3.2,3.6,7.2,8.4,6.14,4.18,4.8,2.88,2.4,2.16,1.92,1.68,0.34,0.72,0.96,1.2,0.6,1.44,3.6,2.16,4.8,6,19.2,9.24,7.2,4.32,2.4,19.2,18,14.4,15.6,9.6,11.52,10.08,10.8,11.52,10.37,10.8,10.66,10.08,9.36,6.05,4,4.4,4.56,3.2,3.6,3.92,3.84,3.52,3.2,3.6,7.2,8.4,6.14,4.18,4.8,2.88,2.4,2.16,1.92,1.68,0.34,0.72,0.96,1.2,0.6,1.44,3.6,2.16,4.8,6,19.2,9.24,7.2,4.32,2.4,19.2,18,14.4,15.6,9.6
11.52,10.08,10.8,11.52,10.37,10.8,10.66,10.08,9.36,6.05,4,4.4,4.56,3.2,3.6,3.92,3.84,3.52,3.2,3.6,7.2,8.4,7.68,6.96,2.88,2.88,2.4,2.16,1.92,1.68,0.34,0.72,0.96,1.2,0.6,1.44,3.6,2.16,4.8,6,19.2,13.2,7.2,4.8,2.4,19.2,18,14.4,15.6,9.6,11.52,10.08,10.8,11.52,10.37,10.8,10.66,10.08,9.36,6.05,4,4.4,4.56,3.2,3.6,3.92,3.84,3.52,3.2,3.6,7.2,8.4,7.68,6.96,2.88,2.88,2.4,2.16,1.92,1.68,0.34,0.72,0.96,1.2,0.6,1.44,3.6,2.16,4.8,6,19.2,13.2,7.2,4.8,2.4,19.2,18,14.4,15.6,9.6
10.37,10.08,10.8,11.52,12.96,7.56,10.66,10.08,9.36,10.08,3.6,3.96,3.19,2.56,2.88,3.92,3.84,3.52,3.2,3.6,7.2,8.4,7.68,6.96,2.88,3.6,2.4,2.16,1.92,1.01,0.48,0.72,0.96,1.2,0.48,2.4,3.6,2.16,4.8,6,19.2,13.2,7.2,4.8,2.4,19.2,18,14.4,15.6,9.6,10.37,10.08,10.8,11.52,12.96,7.56,10.66,10.08,9.36,10.08,3.6,3.96,3.19,2.56,2.88,3.92,3.84,3.52,3.2,3.6,7.2,8.4,7.68,6.96,2.88,3.6,2.4,2.16,1.92,1.01,0.48,0.72,0.96,1.2,0.48,2.4,3.6,2.16,4.8,6,19.2,13.2,7.2,4.8,2.4,19.2,18,14.4,15.6,9.6
10.37,10.08,10.8,11.52,12.96,7.56,10.66,10.08,9.36,10.08,3.6,3.96,3.19,2.56,2.88,3.92,3.84,3.52,3.2,3.6,7.2,8.4,7.68,6.96,4.8,3.6,2.4,2.16,1.92,1.01,0.48,0.72,0.96,1.2,0.48,2.4,3.6,2.16,4.8,4.2,19.2,13.2,7.2,4.8,2.4,19.2,18,14.4,15.6,9.6,10.37,10.08,10.8,11.52,12.96,7.56,10.66,10.08,9.36,10.08,3.6,3.96,3.19,2.56,2.88,3.92,3.84,3.52,3.2,3.6,7.2,8.4,7.68,6.96,4.8,3.6,2.4,2.16,1.92,1.01,0.48,0.72,0.96,1.2,0.48,2.4,3.6,2.16,4.8,4.2,19.2,13.2,7.2,4.8,2.4,19.2,18,14.4,15.6,9.6
11.52,7.06,10.8,11.52,12.96,10.8,7.46,10.08,9.36,10.08,4,4.4,4.56,3.2,3.6,3.14,2.69,2.46,2.24,2.88,6.48,7.56,7.68,6.96,4.8,3.6,2.4,2.16,1.34,1.68,0.48,0.72,0.96,0.96,0.6,2.4,3.6,2.16,4.8,4.2,19.2,13.2,7.2,4.8,2.4,19.2,18,14.4,15.6,9.6,11.52,7.06,10.8,11.52,12.96,10.8,7.46,10.08,9.36,10.08,4,4.4,4.56,3.2,3.6,3.14,2.69,2.46,2.24,2.88,6.48,7.56,7.68,6.96,4.8,3.6,2.4,2.16,1.34,1.68,0.48,0.72,0.96,0.96,0.6,2.4,3.6,2.16,4.8,4.2,19.2,13.2,7.2,4.8,2.4,19.2,18,14.4,15.6,9.6
11.52,7.06,10.8,11.52,12.96,10.8,7.46,10.08,9.36,10.08,4,4.4,4.56,3.2,3.6,3.14,2.69,2.46,2.24,2.88,6.48,7.56,7.68,6.96,4.8,3.6,2.4,2.16,1.34,1.68,0.48,0.72,0.96,0.96,0.6,2.4,3.6,2.16,2.88,6,19.2,13.2,7.2,4.8,2.4,19.2,18,14.4,15.6,9.6,11.52,7.06,10.8,11.52,12.96,10.8,7.46,10.08,9.36,10.08,4,4.4,4.56,3.2,3.6,3.14,2.69,2.46,2.24,2.88,6.48,7.56,7.68,6.96,4.8,3.6,2.4,2.16,1.34,1.68,0.48,0.72,0.96,0.96,0.6,2.4,3.6,2.16,2.88,6,19.2,13.2,7.2,4.8,2.4,19.2,18,14.4,15.6,9.6
11.52,10.08,9.72,11.52,12.96,10.8,10.66,6.05,9.36,10.08,4,4.4,4.56,3.2,3.6,3.92,3.84,3.52,3.2,3.6,7.2,8.4,4.61,4.87,4.8,3.6,2.4,1.3,1.92,1.68,0.48,0.72,0.86,1.2,0.6,2.4,3.6,2.16,2.88,6,19.2,13.2,7.2,4.8,2.4,19.2,18,14.4,15.6,9.6,11.52,10.08,9.72,11.52,12.96,10.8,10.66,6.05,9.36,10.08,4,4.4,4.56,3.2,3.6,3.92,3.84,3.52,3.2,3.6,7.2,8.4,4.61,4.87,4.8,3.6,2.4,1.3,1.92,1.68,0.48,0.72,0.86,1.2,0.6,2.4,3.6,2.16,2.88,6,19.2,13.2,7.2,4.8,2.4,19.2,18,14.4,15.6,9.6
11.52,10.08,9.72,11.52,12.96,10.8,10.66,6.05,9.36,10.08,4,4.4,4.56,3.2,3.6,3.92,3.84,3.52,3.2,3.6,7.2,8.4,4.61,4.87,4.8,3.6,2.4,1.3,1.92,1.68,0.48,0.72,0.86,1.2,0.6,2.4,3.6,1.3,4.8,6,19.2,13.2,7.2,4.8,2.4,19.2,18,14.4,15.6,9.6,11.52,10.08,9.72,11.52,12.96,10.8,10.66,6.05,9.36,10.08,4,4.4,4.56,3.2,3.6,3.92,3.84,3.52,3.2,3.6,7.2,8.4,4.61,4.87,4.8,3.6,2.4,1.3,1.92,1.68,0.48,0.72,0.86,1.2,0.6,2.4,3.6,1.3,4.8,6,19.2,13.2,7.2,4.8,2.4,19.2,18,14.4,15.6,9.6
11.52,10.08,10.8,10.37,12.96,10.8,10.66,10.08,5.62,10.08,4,4.4,4.56,3.2,3.6,3.92,3.84,3.52,3.2,3.6,7.2,8.4,7.68,6.96,3.36,3.6,1.44,2.16,1.92,1.68,0.48,0.65,0.96,1.2,0.6,2.4,3.6,1.3,4.8,6,19.2,13.2,7.2,4.8,2.4,19.2,18,14.4,15.6,9.6,11.52,10.08,10.8,10.37,12.96,10.8,10.66,10.08,5.62,10.08,4,4.4,4.56,3.2,3.6,3.92,3.84,3.52,3.2,3.6,7.2,8.4,7.68,6.96,3.36,3.6,1.44,2.16,1.92,1.68,0.48,0.65,0.96,1.2,0.6,2.4,3.6,1.3,4.8,6,19.2,13.2,7.2,4.8,2.4,19.2,18,14.4,15.6,9.6
11.52,10.08,10.8,10.37,12.96,10.8,10.66,10.08,5.62,10.08,4,4.4,4.56,3.2,3.6,3.92,3.84,3.52,3.2,3.6,7.2,8.4,7.68,6.96,3.36,3.6,1.44,2.16,1.92,1.68,0.48,0.65,0.96,1.2,0.6,2.4,3.24,2.16,4.8,6,19.2,13.2,7.2,4.8,2.4,19.2,18,14.4,15.6,9.6,11.52,10.08,10.8,10.37,12.96,10.8,10.66,10.08,5.62,10.08,4,4.4,4.56,3.2,3.6,3.92,3.84,3.52,3.2,3.6,7.2,8.4,7.68,6.96,3.36,3.6,1.44,2.16,1.92,1.68,0.48,0.65,0.96,1.2,0.6,2.4,3.24,2.16,4.8,6,19.2,13.2,7.2,4.8,2.4,19.2,18,14.4,15.6,9.6
11.52,10.08,10.8,11.52,11.66,10.8,10.66,10.08,9.36,8.06,4,4.4,4.56,3.2,3.6,3.92,3.84,3.52,3.2,3.6,7.2,8.4,7.68,6.96,4.8,2.52,2.4,2.16,1.92,1.68,0.38,0.72,0.96,1.2,0.6,2.4,3.24,2.16,4.8,6,19.2,13.2,7.2,4.8,2.4,19.2,18,14.4,15.6,9.6,11.52,10.08,10.8,11.52,11.66,10.8,10.66,10.08,9.36,8.06,4,4.4,4.56,3.2,3.6,3.92,3.84,3.52,3.2,3.6,7.2,8.4,7.68,6.96,4.8,2.52,2.4,2.16,1.92,1.68,0.38,0.72,0.96,1.2,0.6,2.4,3.24,2.16,4.8,6,19.2,13.2,7.2,4.8,2.4,19.2,18,14.4,15.6,9.6
11.52,10.08,10.8,11.52,11.66,10.8,10.66,10.08,9.36,8.06,4,4.4,4.56,3.2,3.6,3.92,3.84,3.52,3.2,3.6,7.2,8.4,7.68,6.96,4.8,2.52,2.4,2.16,1.92,1.68,0.38,0.72,0.96,1.2,0.6,1.44,3.6,2.16,4.8,6,19.2,13.2,7.2,4.8,2.4,15.36,14.4,8.64,9.36,6.72,11.52,10.08,10.8,11.52,11.66,10.8,10.66,10.08,9.36,8.06,4,4.4,4.56,3.2,3.6,3.92,3.84,3.52,3.2,3.6,7.2,8.4,7.68,6.96,4.8,2.52,2.4,2.16,1.92,1.68,0.38,0.72,0.96,1.2,0.6,1.44,3.6,2.16,4.8,6,19.2,13.2,7.2,4.8,2.4,15.36,14.4,8.64,9.36,6.72
11.52,10.08,10.8,11.52,12.96,10.8,10.66,10.08,9.36,10.08,4,4.4,4.56,3.2,3.6,3.92,3.84,3.52,3.2,3.6,7.2,8.4,7.68,6.96,4.8,3.6,2.4,2.16,1.92,1.68,0.48,0.72,0.96,1.2,0.6,1.44,3.6,2.16,4.8,6,19.2,13.2,7.2,4.8,2.4,15.36,14.4,8.64,9.36,6.72,11.52,10.08,10.8,11.52,12.96,10.8,10.66,10.08,9.36,10.08,4,4.4,4.56,3.2,3.6,3.92,3.84,3.52,3.2,3.6,7.2,8.4,7.68,6.96,4.8,3.6,2.4,2.16,1.92,1.68,0.48,0.72,0.96,1.2,0.6,1.44,3.6,2.16,4.8,6,19.2,13.2,7.2,4.8,2.4,15.36,14.4,8.64,9.36,6.72
