﻿r1p1,r1p2,r1p3,r1p4,r1p5,r1p6,r1p7,r1p8,r1p9,r1p10,r1p11,r1p12,r1p13,r1p14,r1p15,r1p16,r1p17,r1p18,r1p19,r1p20,r1p21,r1p22,r1p23,r1p24,r1p25,r1p26,r1p27,r1p28,r1p29,r1p30,r1p31,r1p32,r1p33,r1p34,r1p35,r1p36,r1p37,r1p38,r1p39,r1p40,r1p41,r1p42,r1p43,r1p44,r1p45,r1p46,r1p47,r1p48,r1p49,r1p50,r2p1,r2p2,r2p3,r2p4,r2p5,r2p6,r2p7,r2p8,r2p9,r2p10,r2p11,r2p12,r2p13,r2p14,r2p15,r2p16,r2p17,r2p18,r2p19,r2p20,r2p21,r2p22,r2p23,r2p24,r2p25,r2p26,r2p27,r2p28,r2p29,r2p30,r2p31,r2p32,r2p33,r2p34,r2p35,r2p36,r2p37,r2p38,r2p39,r2p40,r2p41,r2p42,r2p43,r2p44,r2p45,r2p46,r2p47,r2p48,r2p49,r2p50
0.39,0.39,0.39,0.39,0.39,0.2,0.2,0.2,0.2,0.2,0.3,0.3,0.3,0.3,0.3,0.6,0.1,0.6,0.6,0.6,0.45,0.45,0.45,0.45,0.45,0.1,0.1,0.1,0.1,0.1,0.59,0.65,0.65,0.65,0.65,0.35,0.1,0.35,0.1,0.35,0.35,0.35,0.35,0.35,0.35,0.1,0.1,0.1,0.1,0.1,0.39,0.39,0.39,0.39,0.39,0.2,0.2,0.2,0.2,0.2,0.3,0.3,0.3,0.3,0.3,0.6,0.1,0.6,0.6,0.6,0.45,0.45,0.45,0.45,0.45,0.1,0.1,0.1,0.1,0.1,0.59,0.65,0.65,0.65,0.65,0.35,0.1,0.35,0.1,0.35,0.35,0.35,0.35,0.35,0.35,0.1,0.1,0.1,0.1,0.1
0.43,0.43,0.43,0.43,0.43,0.3,0.3,0.3,0.3,0.3,0.4,0.4,0.4,0.4,0.4,0.6,0.1,0.6,0.6,0.6,0.5,0.5,0.5,0.5,0.5,0.1,0.1,0.1,0.1,0.1,0.63,0.65,0.65,0.65,0.65,0.4,0.1,0.4,0.1,0.4,0.4,0.4,0.4,0.4,0.4,0.1,0.1,0.1,0.1,0.1,0.43,0.43,0.43,0.43,0.43,0.3,0.3,0.3,0.3,0.3,0.4,0.4,0.4,0.4,0.4,0.6,0.1,0.6,0.6,0.6,0.5,0.5,0.5,0.5,0.5,0.1,0.1,0.1,0.1,0.1,0.63,0.65,0.65,0.65,0.65,0.4,0.1,0.4,0.1,0.4,0.4,0.4,0.4,0.4,0.4,0.1,0.1,0.1,0.1,0.1
0.45,0.45,0.45,0.45,0.45,0.3,0.3,0.3,0.3,0.3,0.4,0.4,0.4,0.4,0.4,0.6,0.1,0.6,0.6,0.6,0.55,0.55,0.55,0.55,0.55,0.1,0.1,0.1,0.1,0.1,0.65,0.65,0.65,0.65,0.65,0.4,0.1,0.4,0.1,0.4,0.4,0.4,0.4,0.4,0.4,0.1,0.1,0.1,0.1,0.1,0.45,0.45,0.45,0.45,0.45,0.3,0.3,0.3,0.3,0.3,0.4,0.4,0.4,0.4,0.4,0.6,0.1,0.6,0.6,0.6,0.55,0.55,0.55,0.55,0.55,0.1,0.1,0.1,0.1,0.1,0.65,0.65,0.65,0.65,0.65,0.4,0.1,0.4,0.1,0.4,0.4,0.4,0.4,0.4,0.4,0.1,0.1,0.1,0.1,0.1
0.45,0.45,0.45,0.45,0.45,0.3,0.3,0.3,0.3,0.3,0.4,0.4,0.4,0.4,0.4,0.6,0.1,0.6,0.6,0.6,0.55,0.55,0.55,0.55,0.55,0.1,0.1,0.1,0.1,0.1,0.65,0.65,0.65,0.65,0.65,0.4,0.1,0.4,0.1,0.4,0.4,0.4,0.4,0.4,0.4,0.1,0.1,0.1,0.1,0.1,0.45,0.45,0.45,0.45,0.45,0.3,0.3,0.3,0.3,0.3,0.4,0.4,0.4,0.4,0.4,0.6,0.1,0.6,0.6,0.6,0.55,0.55,0.55,0.55,0.55,0.1,0.1,0.1,0.1,0.1,0.65,0.65,0.65,0.65,0.65,0.4,0.1,0.4,0.1,0.4,0.4,0.4,0.4,0.4,0.4,0.1,0.1,0.1,0.1,0.1
0.45,0.45,0.45,0.45,0.45,0.3,0.3,0.3,0.3,0.3,0.4,0.4,0.4,0.4,0.4,0.6,0.1,0.6,0.6,0.6,0.55,0.55,0.55,0.55,0.55,0.1,0.1,0.1,0.1,0.1,0.65,0.65,0.65,0.65,0.65,0.4,0.1,0.4,0.1,0.4,0.4,0.4,0.4,0.4,0.4,0.1,0.1,0.1,0.1,0.1,0.45,0.45,0.45,0.45,0.45,0.3,0.3,0.3,0.3,0.3,0.4,0.4,0.4,0.4,0.4,0.6,0.1,0.6,0.6,0.6,0.55,0.55,0.55,0.55,0.55,0.1,0.1,0.1,0.1,0.1,0.65,0.65,0.65,0.65,0.65,0.4,0.1,0.4,0.1,0.4,0.4,0.4,0.4,0.4,0.4,0.1,0.1,0.1,0.1,0.1
0.48,0.48,0.48,0.48,0.48,0.3,0.3,0.3,0.3,0.3,0.4,0.4,0.4,0.4,0.4,0.6,0.1,0.6,0.6,0.6,0.55,0.55,0.55,0.55,0.55,0.1,0.1,0.1,0.1,0.1,0.68,0.65,0.65,0.65,0.65,0.5,0.1,0.5,0.1,0.5,0.5,0.5,0.5,0.5,0.5,0.1,0.1,0.1,0.1,0.1,0.48,0.48,0.48,0.48,0.48,0.3,0.3,0.3,0.3,0.3,0.4,0.4,0.4,0.4,0.4,0.6,0.1,0.6,0.6,0.6,0.55,0.55,0.55,0.55,0.55,0.1,0.1,0.1,0.1,0.1,0.68,0.65,0.65,0.65,0.65,0.5,0.1,0.5,0.1,0.5,0.5,0.5,0.5,0.5,0.5,0.1,0.1,0.1,0.1,0.1
0.51,0.51,0.51,0.51,0.51,0.3,0.3,0.3,0.3,0.3,0.4,0.4,0.4,0.4,0.4,0.6,0.1,0.6,0.6,0.6,0.55,0.55,0.55,0.55,0.55,0.1,0.1,0.1,0.1,0.1,0.71,0.65,0.65,0.65,0.65,0.6,0.1,0.6,0.1,0.6,0.6,0.6,0.6,0.6,0.6,0.1,0.1,0.1,0.1,0.1,0.51,0.51,0.51,0.51,0.51,0.3,0.3,0.3,0.3,0.3,0.4,0.4,0.4,0.4,0.4,0.6,0.1,0.6,0.6,0.6,0.55,0.55,0.55,0.55,0.55,0.1,0.1,0.1,0.1,0.1,0.71,0.65,0.65,0.65,0.65,0.6,0.1,0.6,0.1,0.6,0.6,0.6,0.6,0.6,0.6,0.1,0.1,0.1,0.1,0.1
0.51,0.51,0.51,0.51,0.51,0.3,0.3,0.3,0.3,0.3,0.4,0.4,0.4,0.4,0.4,0.6,0.1,0.6,0.6,0.6,0.55,0.55,0.55,0.55,0.55,0.1,0.1,0.1,0.1,0.1,0.71,0.65,0.65,0.65,0.65,0.6,0.1,0.6,0.1,0.6,0.6,0.6,0.6,0.6,0.6,0.1,0.1,0.1,0.1,0.1,0.51,0.51,0.51,0.51,0.51,0.3,0.3,0.3,0.3,0.3,0.4,0.4,0.4,0.4,0.4,0.6,0.1,0.6,0.6,0.6,0.55,0.55,0.55,0.55,0.55,0.1,0.1,0.1,0.1,0.1,0.71,0.65,0.65,0.65,0.65,0.6,0.1,0.6,0.1,0.6,0.6,0.6,0.6,0.6,0.6,0.1,0.1,0.1,0.1,0.1
0.51,0.51,0.51,0.51,0.51,0.3,0.3,0.3,0.3,0.3,0.4,0.4,0.4,0.4,0.4,0.6,0.1,0.6,0.6,0.6,0.55,0.55,0.55,0.55,0.55,0.1,0.1,0.1,0.1,0.1,0.71,0.65,0.65,0.65,0.65,0.6,0.1,0.6,0.1,0.6,0.6,0.6,0.6,0.6,0.6,0.1,0.1,0.1,0.1,0.1,0.51,0.51,0.51,0.51,0.51,0.3,0.3,0.3,0.3,0.3,0.4,0.4,0.4,0.4,0.4,0.6,0.1,0.6,0.6,0.6,0.55,0.55,0.55,0.55,0.55,0.1,0.1,0.1,0.1,0.1,0.71,0.65,0.65,0.65,0.65,0.6,0.1,0.6,0.1,0.6,0.6,0.6,0.6,0.6,0.6,0.1,0.1,0.1,0.1,0.1
0.51,0.51,0.51,0.51,0.51,0.3,0.3,0.3,0.3,0.3,0.4,0.4,0.4,0.4,0.4,0.6,0.1,0.6,0.6,0.6,0.55,0.55,0.55,0.55,0.55,0.1,0.1,0.1,0.1,0.1,0.71,0.65,0.65,0.65,0.65,0.6,0.1,0.6,0.1,0.6,0.6,0.6,0.6,0.6,0.6,0.1,0.1,0.1,0.1,0.1,0.51,0.51,0.51,0.51,0.51,0.3,0.3,0.3,0.3,0.3,0.4,0.4,0.4,0.4,0.4,0.6,0.1,0.6,0.6,0.6,0.55,0.55,0.55,0.55,0.55,0.1,0.1,0.1,0.1,0.1,0.71,0.65,0.65,0.65,0.65,0.6,0.1,0.6,0.1,0.6,0.6,0.6,0.6,0.6,0.6,0.1,0.1,0.1,0.1,0.1
0.51,0.51,0.51,0.51,0.51,0.3,0.3,0.3,0.3,0.3,0.4,0.4,0.4,0.4,0.4,0.6,0.1,0.6,0.6,0.6,0.55,0.55,0.55,0.55,0.55,0.1,0.1,0.1,0.1,0.1,0.71,0.65,0.65,0.65,0.65,0.6,0.1,0.6,0.1,0.6,0.6,0.6,0.6,0.6,0.6,0.1,0.1,0.1,0.1,0.1,0.51,0.51,0.51,0.51,0.51,0.3,0.3,0.3,0.3,0.3,0.4,0.4,0.4,0.4,0.4,0.6,0.1,0.6,0.6,0.6,0.55,0.55,0.55,0.55,0.55,0.1,0.1,0.1,0.1,0.1,0.71,0.65,0.65,0.65,0.65,0.6,0.1,0.6,0.1,0.6,0.6,0.6,0.6,0.6,0.6,0.1,0.1,0.1,0.1,0.1
0.51,0.51,0.51,0.51,0.51,0.3,0.3,0.3,0.3,0.3,0.4,0.4,0.4,0.4,0.4,0.6,0.1,0.6,0.6,0.6,0.55,0.55,0.55,0.55,0.55,0.1,0.1,0.1,0.1,0.1,0.71,0.65,0.65,0.65,0.65,0.6,0.5,0.6,0.1,0.6,0.6,0.6,0.6,0.6,0.6,0.1,0.1,0.1,0.1,0.1,0.51,0.51,0.51,0.51,0.51,0.3,0.3,0.3,0.3,0.3,0.4,0.4,0.4,0.4,0.4,0.6,0.1,0.6,0.6,0.6,0.55,0.55,0.55,0.55,0.55,0.1,0.1,0.1,0.1,0.1,0.71,0.65,0.65,0.65,0.65,0.6,0.5,0.6,0.1,0.6,0.6,0.6,0.6,0.6,0.6,0.1,0.1,0.1,0.1,0.1
0.59,0.59,0.59,0.59,0.59,0.3,0.3,0.3,0.3,0.3,0.4,0.4,0.4,0.4,0.4,0.6,0.1,0.6,0.6,0.6,0.55,0.55,0.55,0.55,0.55,0.1,0.1,0.1,0.1,0.1,0.79,0.65,0.65,0.65,0.65,0.9,0.5,0.9,0.1,0.9,0.9,0.9,0.9,0.9,0.9,0.1,0.1,0.1,0.1,0.1,0.59,0.59,0.59,0.59,0.59,0.3,0.3,0.3,0.3,0.3,0.4,0.4,0.4,0.4,0.4,0.6,0.1,0.6,0.6,0.6,0.55,0.55,0.55,0.55,0.55,0.1,0.1,0.1,0.1,0.1,0.79,0.65,0.65,0.65,0.65,0.9,0.5,0.9,0.1,0.9,0.9,0.9,0.9,0.9,0.9,0.1,0.1,0.1,0.1,0.1
0.51,0.51,0.51,0.51,0.51,0.3,0.3,0.3,0.3,0.3,0.4,0.4,0.4,0.4,0.4,0.6,0.1,0.6,0.6,0.6,0.55,0.55,0.55,0.55,0.55,0.1,0.1,0.1,0.1,0.1,0.71,0.65,0.65,0.65,0.65,0.6,0.5,0.6,0.1,0.6,0.6,0.6,0.6,0.6,0.6,0.1,0.1,0.1,0.1,0.1,0.51,0.51,0.51,0.51,0.51,0.3,0.3,0.3,0.3,0.3,0.4,0.4,0.4,0.4,0.4,0.6,0.1,0.6,0.6,0.6,0.55,0.55,0.55,0.55,0.55,0.1,0.1,0.1,0.1,0.1,0.71,0.65,0.65,0.65,0.65,0.6,0.5,0.6,0.1,0.6,0.6,0.6,0.6,0.6,0.6,0.1,0.1,0.1,0.1,0.1
0.51,0.51,0.51,0.51,0.51,0.3,0.3,0.3,0.3,0.3,0.4,0.4,0.4,0.4,0.4,0.6,0.1,0.6,0.6,0.6,0.55,0.55,0.55,0.55,0.55,0.1,0.1,0.1,0.1,0.1,0.71,0.65,0.65,0.65,0.65,0.6,0.5,0.6,0.1,0.6,0.6,0.6,0.6,0.6,0.6,0.1,0.1,0.1,0.1,0.1,0.51,0.51,0.51,0.51,0.51,0.3,0.3,0.3,0.3,0.3,0.4,0.4,0.4,0.4,0.4,0.6,0.1,0.6,0.6,0.6,0.55,0.55,0.55,0.55,0.55,0.1,0.1,0.1,0.1,0.1,0.71,0.65,0.65,0.65,0.65,0.6,0.5,0.6,0.1,0.6,0.6,0.6,0.6,0.6,0.6,0.1,0.1,0.1,0.1,0.1
0.51,0.51,0.51,0.51,0.51,0.3,0.3,0.3,0.3,0.3,0.4,0.4,0.4,0.4,0.4,0.6,0.1,0.6,0.6,0.6,0.75,0.75,0.75,0.75,0.75,0.1,0.1,0.1,0.1,0.1,0.71,0.65,0.65,0.65,0.65,0.6,0.5,0.6,0.1,0.6,0.6,0.6,0.6,0.6,0.6,0.1,0.1,0.1,0.1,0.1,0.51,0.51,0.51,0.51,0.51,0.3,0.3,0.3,0.3,0.3,0.4,0.4,0.4,0.4,0.4,0.6,0.1,0.6,0.6,0.6,0.75,0.75,0.75,0.75,0.75,0.1,0.1,0.1,0.1,0.1,0.71,0.65,0.65,0.65,0.65,0.6,0.5,0.6,0.1,0.6,0.6,0.6,0.6,0.6,0.6,0.1,0.1,0.1,0.1,0.1
0.51,0.51,0.51,0.51,0.45,0.3,0.3,0.3,0.3,0.3,0.4,0.4,0.4,0.4,0.4,0.6,0.1,0.6,0.6,0.6,0.75,0.75,0.75,0.75,0.75,0.1,0.1,0.1,0.1,0.1,0.71,0.65,0.65,0.65,0.65,0.6,0.5,0.6,0.1,0.6,0.6,0.6,0.6,0.6,0.6,0.1,0.1,0.1,0.1,0.1,0.51,0.51,0.51,0.51,0.45,0.3,0.3,0.3,0.3,0.3,0.4,0.4,0.4,0.4,0.4,0.6,0.1,0.6,0.6,0.6,0.75,0.75,0.75,0.75,0.75,0.1,0.1,0.1,0.1,0.1,0.71,0.65,0.65,0.65,0.65,0.6,0.5,0.6,0.1,0.6,0.6,0.6,0.6,0.6,0.6,0.1,0.1,0.1,0.1,0.1
0.51,0.51,0.51,0.51,0.48,0.3,0.3,0.3,0.3,0.3,0.4,0.4,0.4,0.4,0.4,0.6,0.1,0.6,0.6,0.6,0.75,0.75,0.75,0.75,0.75,0.1,0.1,0.1,0.1,0.1,0.71,0.65,0.65,0.65,0.65,0.6,0.5,0.6,0.1,0.6,0.6,0.6,0.6,0.6,0.6,0.1,0.1,0.1,0.1,0.1,0.51,0.51,0.51,0.51,0.48,0.3,0.3,0.3,0.3,0.3,0.4,0.4,0.4,0.4,0.4,0.6,0.1,0.6,0.6,0.6,0.75,0.75,0.75,0.75,0.75,0.1,0.1,0.1,0.1,0.1,0.71,0.65,0.65,0.65,0.65,0.6,0.5,0.6,0.1,0.6,0.6,0.6,0.6,0.6,0.6,0.1,0.1,0.1,0.1,0.1
0.51,0.51,0.51,0.51,0.51,0.3,0.3,0.3,0.3,0.3,0.4,0.4,0.4,0.4,0.4,0.6,0.1,0.6,0.6,0.6,0.75,0.75,0.75,0.75,0.75,0.1,0.1,0.1,0.1,0.1,0.71,0.65,0.65,0.65,0.65,0.6,0.5,0.6,0.1,0.6,0.6,0.6,0.6,0.6,0.6,0.1,0.1,0.1,0.1,0.1,0.51,0.51,0.51,0.51,0.51,0.3,0.3,0.3,0.3,0.3,0.4,0.4,0.4,0.4,0.4,0.6,0.1,0.6,0.6,0.6,0.75,0.75,0.75,0.75,0.75,0.1,0.1,0.1,0.1,0.1,0.71,0.65,0.65,0.65,0.65,0.6,0.5,0.6,0.1,0.6,0.6,0.6,0.6,0.6,0.6,0.1,0.1,0.1,0.1,0.1
0.51,0.51,0.51,0.51,0.51,0.3,0.3,0.3,0.3,0.3,0.4,0.4,0.4,0.4,0.4,0.6,0.1,0.6,0.6,0.6,0.75,0.75,0.75,0.75,0.75,0.2,0.2,0.2,0.2,0.2,0.71,0.65,0.65,0.65,0.65,0.6,0.5,0.6,0.1,0.6,0.6,0.6,0.6,0.6,0.6,0.2,0.2,0.2,0.2,0.2,0.51,0.51,0.51,0.51,0.51,0.3,0.3,0.3,0.3,0.3,0.4,0.4,0.4,0.4,0.4,0.6,0.1,0.6,0.6,0.6,0.75,0.75,0.75,0.75,0.75,0.2,0.2,0.2,0.2,0.2,0.71,0.65,0.65,0.65,0.65,0.6,0.5,0.6,0.1,0.6,0.6,0.6,0.6,0.6,0.6,0.2,0.2,0.2,0.2,0.2
0.51,0.51,0.51,0.51,0.51,0.3,0.3,0.3,0.3,0.3,0.4,0.4,0.4,0.4,0.4,0.6,0.1,0.6,0.6,0.6,0.75,0.75,0.75,0.75,0.75,0.3,0.3,0.3,0.3,0.3,0.71,0.65,0.65,0.65,0.65,0.6,0.5,0.6,0.1,0.6,0.6,0.6,0.6,0.6,0.6,0.3,0.3,0.3,0.3,0.3,0.51,0.51,0.51,0.51,0.51,0.3,0.3,0.3,0.3,0.3,0.4,0.4,0.4,0.4,0.4,0.6,0.1,0.6,0.6,0.6,0.75,0.75,0.75,0.75,0.75,0.3,0.3,0.3,0.3,0.3,0.71,0.65,0.65,0.65,0.65,0.6,0.5,0.6,0.1,0.6,0.6,0.6,0.6,0.6,0.6,0.3,0.3,0.3,0.3,0.3
0.51,0.51,0.51,0.51,0.51,0.3,0.3,0.3,0.3,0.3,0.4,0.4,0.4,0.4,0.4,0.6,0.1,0.6,0.6,0.6,0.75,0.75,0.75,0.75,0.75,0.3,0.4,0.4,0.4,0.4,0.71,0.65,0.65,0.65,0.65,0.6,0.5,0.6,0.1,0.6,0.6,0.6,0.6,0.6,0.6,0.3,0.4,0.4,0.4,0.4,0.51,0.51,0.51,0.51,0.51,0.3,0.3,0.3,0.3,0.3,0.4,0.4,0.4,0.4,0.4,0.6,0.1,0.6,0.6,0.6,0.75,0.75,0.75,0.75,0.75,0.3,0.4,0.4,0.4,0.4,0.71,0.65,0.65,0.65,0.65,0.6,0.5,0.6,0.1,0.6,0.6,0.6,0.6,0.6,0.6,0.3,0.4,0.4,0.4,0.4
0.56,0.56,0.56,0.56,0.56,0.3,0.3,0.3,0.3,0.3,0.4,0.4,0.4,0.4,0.4,0.6,0.1,0.6,0.6,0.6,0.75,0.75,0.75,0.75,0.75,0.3,0.5,0.5,0.5,0.5,0.76,0.65,0.65,0.65,0.65,0.8,0.5,0.8,0.1,0.8,0.8,0.8,0.8,0.8,0.8,0.3,0.5,0.5,0.5,0.5,0.56,0.56,0.56,0.56,0.56,0.3,0.3,0.3,0.3,0.3,0.4,0.4,0.4,0.4,0.4,0.6,0.1,0.6,0.6,0.6,0.75,0.75,0.75,0.75,0.75,0.3,0.5,0.5,0.5,0.5,0.76,0.65,0.65,0.65,0.65,0.8,0.5,0.8,0.1,0.8,0.8,0.8,0.8,0.8,0.8,0.3,0.5,0.5,0.5,0.5
0.54,0.54,0.54,0.54,0.54,0.3,0.3,0.3,0.3,0.3,0.4,0.4,0.4,0.4,0.4,0.6,0.1,0.6,0.6,0.6,0.75,0.75,0.75,0.75,0.75,0.3,0.6,0.6,0.6,0.6,0.74,0.65,0.65,0.65,0.65,0.7,0.5,0.7,0.1,0.7,0.7,0.7,0.7,0.7,0.7,0.3,0.6,0.6,0.6,0.6,0.54,0.54,0.54,0.54,0.54,0.3,0.3,0.3,0.3,0.3,0.4,0.4,0.4,0.4,0.4,0.6,0.1,0.6,0.6,0.6,0.75,0.75,0.75,0.75,0.75,0.3,0.6,0.6,0.6,0.6,0.74,0.65,0.65,0.65,0.65,0.7,0.5,0.7,0.1,0.7,0.7,0.7,0.7,0.7,0.7,0.3,0.6,0.6,0.6,0.6
0.51,0.51,0.51,0.51,0.45,0.3,0.3,0.3,0.3,0.3,0.4,0.4,0.4,0.4,0.4,0.6,0.2,0.6,0.6,0.6,0.75,0.75,0.75,0.75,0.75,0.6,0.6,0.6,0.6,0.6,0.71,0.65,0.65,0.65,0.65,0.6,0.5,0.6,0.1,0.6,0.6,0.6,0.6,0.6,0.6,0.6,0.6,0.6,0.6,0.6,0.51,0.51,0.51,0.51,0.45,0.3,0.3,0.3,0.3,0.3,0.4,0.4,0.4,0.4,0.4,0.6,0.2,0.6,0.6,0.6,0.75,0.75,0.75,0.75,0.75,0.6,0.6,0.6,0.6,0.6,0.71,0.65,0.65,0.65,0.65,0.6,0.5,0.6,0.1,0.6,0.6,0.6,0.6,0.6,0.6,0.6,0.6,0.6,0.6,0.6
0.48,0.48,0.48,0.48,0.48,0.3,0.3,0.3,0.3,0.3,0.4,0.4,0.4,0.4,0.4,0.6,0.2,0.6,0.6,0.6,0.55,0.55,0.55,0.55,0.55,0.6,0.6,0.6,0.6,0.6,0.68,0.65,0.65,0.65,0.65,0.5,0.5,0.5,0.1,0.5,0.5,0.5,0.5,0.5,0.5,0.6,0.6,0.6,0.6,0.6,0.48,0.48,0.48,0.48,0.48,0.3,0.3,0.3,0.3,0.3,0.4,0.4,0.4,0.4,0.4,0.6,0.2,0.6,0.6,0.6,0.55,0.55,0.55,0.55,0.55,0.6,0.6,0.6,0.6,0.6,0.68,0.65,0.65,0.65,0.65,0.5,0.5,0.5,0.1,0.5,0.5,0.5,0.5,0.5,0.5,0.6,0.6,0.6,0.6,0.6
0.43,0.43,0.43,0.43,0.51,0.3,0.3,0.3,0.3,0.3,0.4,0.4,0.4,0.4,0.4,0.6,0.2,0.6,0.6,0.6,0.5,0.5,0.5,0.5,0.5,0.6,0.6,0.6,0.6,0.6,0.63,0.65,0.65,0.65,0.65,0.4,0.5,0.4,0.1,0.4,0.4,0.4,0.4,0.4,0.4,0.6,0.6,0.6,0.6,0.6,0.43,0.43,0.43,0.43,0.51,0.3,0.3,0.3,0.3,0.3,0.4,0.4,0.4,0.4,0.4,0.6,0.2,0.6,0.6,0.6,0.5,0.5,0.5,0.5,0.5,0.6,0.6,0.6,0.6,0.6,0.63,0.65,0.65,0.65,0.65,0.4,0.5,0.4,0.1,0.4,0.4,0.4,0.4,0.4,0.4,0.6,0.6,0.6,0.6,0.6
0.43,0.43,0.43,0.43,0.51,0.2,0.2,0.2,0.2,0.2,0.3,0.3,0.3,0.3,0.3,0.6,0.2,0.6,0.6,0.6,0.5,0.5,0.5,0.5,0.5,0.8,0.8,0.6,0.6,0.6,0.63,0.65,0.65,0.65,0.65,0.4,0.5,0.4,0.1,0.4,0.4,0.4,0.4,0.4,0.4,0.8,0.8,0.6,0.6,0.6,0.43,0.43,0.43,0.43,0.51,0.2,0.2,0.2,0.2,0.2,0.3,0.3,0.3,0.3,0.3,0.6,0.2,0.6,0.6,0.6,0.5,0.5,0.5,0.5,0.5,0.8,0.8,0.6,0.6,0.6,0.63,0.65,0.65,0.65,0.65,0.4,0.5,0.4,0.1,0.4,0.4,0.4,0.4,0.4,0.4,0.8,0.8,0.6,0.6,0.6
0.39,0.39,0.39,0.39,0.51,0.2,0.2,0.2,0.2,0.2,0.3,0.3,0.3,0.3,0.3,0.6,0.2,0.6,0.6,0.6,0.5,0.5,0.5,0.5,0.5,0.8,0.8,0.8,0.8,0.8,0.59,0.65,0.65,0.65,0.65,0.3,0.5,0.3,0.1,0.3,0.3,0.3,0.3,0.3,0.3,0.8,0.8,0.8,0.8,0.8,0.39,0.39,0.39,0.39,0.51,0.2,0.2,0.2,0.2,0.2,0.3,0.3,0.3,0.3,0.3,0.6,0.2,0.6,0.6,0.6,0.5,0.5,0.5,0.5,0.5,0.8,0.8,0.8,0.8,0.8,0.59,0.65,0.65,0.65,0.65,0.3,0.5,0.3,0.1,0.3,0.3,0.3,0.3,0.3,0.3,0.8,0.8,0.8,0.8,0.8
0.43,0.43,0.43,0.43,0.43,0.2,0.2,0.2,0.2,0.2,0.3,0.3,0.3,0.3,0.3,0.6,0.2,0.6,0.6,0.6,0.5,0.5,0.5,0.5,0.5,0.6,0.6,0.6,0.6,0.6,0.63,0.65,0.65,0.65,0.65,0.4,0.5,0.4,0.1,0.4,0.4,0.4,0.4,0.4,0.4,0.6,0.6,0.6,0.6,0.6,0.43,0.43,0.43,0.43,0.43,0.2,0.2,0.2,0.2,0.2,0.3,0.3,0.3,0.3,0.3,0.6,0.2,0.6,0.6,0.6,0.5,0.5,0.5,0.5,0.5,0.6,0.6,0.6,0.6,0.6,0.63,0.65,0.65,0.65,0.65,0.4,0.5,0.4,0.1,0.4,0.4,0.4,0.4,0.4,0.4,0.6,0.6,0.6,0.6,0.6
0.51,0.51,0.51,0.51,0.51,0.2,0.2,0.2,0.2,0.2,0.3,0.3,0.3,0.3,0.3,0.6,0.2,0.6,0.6,0.6,0.55,0.55,0.55,0.55,0.55,0.6,0.6,0.6,0.6,0.6,0.71,0.65,0.65,0.65,0.65,0.6,0.5,0.6,0.1,0.6,0.6,0.6,0.6,0.6,0.6,0.6,0.6,0.6,0.6,0.6,0.51,0.51,0.51,0.51,0.51,0.2,0.2,0.2,0.2,0.2,0.3,0.3,0.3,0.3,0.3,0.6,0.2,0.6,0.6,0.6,0.55,0.55,0.55,0.55,0.55,0.6,0.6,0.6,0.6,0.6,0.71,0.65,0.65,0.65,0.65,0.6,0.5,0.6,0.1,0.6,0.6,0.6,0.6,0.6,0.6,0.6,0.6,0.6,0.6,0.6
0.51,0.51,0.51,0.51,0.51,0.3,0.3,0.3,0.3,0.3,0.4,0.4,0.4,0.4,0.4,0.6,0.2,0.6,0.6,0.6,0.55,0.55,0.55,0.55,0.55,0.6,0.6,0.6,0.6,0.6,0.71,0.65,0.65,0.65,0.65,0.6,0.5,0.6,0.1,0.6,0.6,0.6,0.6,0.6,0.6,0.6,0.6,0.6,0.6,0.6,0.51,0.51,0.51,0.51,0.51,0.3,0.3,0.3,0.3,0.3,0.4,0.4,0.4,0.4,0.4,0.6,0.2,0.6,0.6,0.6,0.55,0.55,0.55,0.55,0.55,0.6,0.6,0.6,0.6,0.6,0.71,0.65,0.65,0.65,0.65,0.6,0.5,0.6,0.1,0.6,0.6,0.6,0.6,0.6,0.6,0.6,0.6,0.6,0.6,0.6
0.51,0.51,0.51,0.51,0.51,0.3,0.3,0.3,0.3,0.3,0.4,0.4,0.4,0.4,0.4,0.6,0.2,0.6,0.6,0.6,0.55,0.55,0.55,0.55,0.55,0.6,0.6,0.6,0.6,0.6,0.71,0.65,0.65,0.65,0.65,0.6,0.5,0.6,0.1,0.6,0.6,0.6,0.6,0.6,0.6,0.6,0.6,0.6,0.6,0.6,0.51,0.51,0.51,0.51,0.51,0.3,0.3,0.3,0.3,0.3,0.4,0.4,0.4,0.4,0.4,0.6,0.2,0.6,0.6,0.6,0.55,0.55,0.55,0.55,0.55,0.6,0.6,0.6,0.6,0.6,0.71,0.65,0.65,0.65,0.65,0.6,0.5,0.6,0.1,0.6,0.6,0.6,0.6,0.6,0.6,0.6,0.6,0.6,0.6,0.6
0.51,0.51,0.51,0.51,0.51,0.3,0.3,0.3,0.3,0.3,0.4,0.4,0.4,0.4,0.4,0.6,0.2,0.6,0.6,0.6,0.55,0.55,0.55,0.55,0.55,0.6,0.6,0.6,0.6,0.6,0.71,0.65,0.65,0.65,0.65,0.6,0.5,0.6,0.1,0.6,0.6,0.6,0.6,0.6,0.6,0.6,0.6,0.6,0.6,0.6,0.51,0.51,0.51,0.51,0.51,0.3,0.3,0.3,0.3,0.3,0.4,0.4,0.4,0.4,0.4,0.6,0.2,0.6,0.6,0.6,0.55,0.55,0.55,0.55,0.55,0.6,0.6,0.6,0.6,0.6,0.71,0.65,0.65,0.65,0.65,0.6,0.5,0.6,0.1,0.6,0.6,0.6,0.6,0.6,0.6,0.6,0.6,0.6,0.6,0.6
0.51,0.51,0.51,0.51,0.51,0.3,0.3,0.3,0.3,0.3,0.4,0.4,0.4,0.4,0.4,0.6,0.2,0.6,0.6,0.6,0.55,0.55,0.55,0.55,0.55,0.6,0.5,0.5,0.5,0.6,0.71,0.65,0.65,0.65,0.65,0.6,0.5,0.6,0.1,0.6,0.6,0.6,0.6,0.6,0.6,0.6,0.5,0.5,0.5,0.6,0.51,0.51,0.51,0.51,0.51,0.3,0.3,0.3,0.3,0.3,0.4,0.4,0.4,0.4,0.4,0.6,0.2,0.6,0.6,0.6,0.55,0.55,0.55,0.55,0.55,0.6,0.5,0.5,0.5,0.6,0.71,0.65,0.65,0.65,0.65,0.6,0.5,0.6,0.1,0.6,0.6,0.6,0.6,0.6,0.6,0.6,0.5,0.5,0.5,0.6
0.51,0.51,0.51,0.51,0.51,0.3,0.3,0.3,0.3,0.3,0.4,0.4,0.4,0.4,0.4,0.6,0.2,0.6,0.6,0.6,0.55,0.55,0.55,0.55,0.55,0.6,0.5,0.5,0.5,0.6,0.71,0.65,0.65,0.65,0.65,0.6,0.5,0.6,0.1,0.6,0.6,0.6,0.6,0.6,0.6,0.6,0.5,0.5,0.5,0.6,0.51,0.51,0.51,0.51,0.51,0.3,0.3,0.3,0.3,0.3,0.4,0.4,0.4,0.4,0.4,0.6,0.2,0.6,0.6,0.6,0.55,0.55,0.55,0.55,0.55,0.6,0.5,0.5,0.5,0.6,0.71,0.65,0.65,0.65,0.65,0.6,0.5,0.6,0.1,0.6,0.6,0.6,0.6,0.6,0.6,0.6,0.5,0.5,0.5,0.6
0.51,0.51,0.51,0.51,0.51,0.3,0.3,0.3,0.3,0.3,0.4,0.4,0.4,0.4,0.4,0.6,0.2,0.6,0.6,0.6,0.55,0.55,0.55,0.55,0.55,0.6,0.5,0.5,0.5,0.6,0.71,0.65,0.65,0.65,0.65,0.6,0.5,0.6,0.1,0.6,0.6,0.6,0.6,0.6,0.6,0.6,0.5,0.5,0.5,0.6,0.51,0.51,0.51,0.51,0.51,0.3,0.3,0.3,0.3,0.3,0.4,0.4,0.4,0.4,0.4,0.6,0.2,0.6,0.6,0.6,0.55,0.55,0.55,0.55,0.55,0.6,0.5,0.5,0.5,0.6,0.71,0.65,0.65,0.65,0.65,0.6,0.5,0.6,0.1,0.6,0.6,0.6,0.6,0.6,0.6,0.6,0.5,0.5,0.5,0.6
0.51,0.51,0.51,0.51,0.51,0.3,0.3,0.3,0.3,0.3,0.4,0.4,0.4,0.4,0.4,0.6,0.2,0.6,0.6,0.6,0.55,0.55,0.55,0.55,0.55,0.6,0.5,0.5,0.5,0.6,0.71,0.65,0.65,0.65,0.65,0.6,0.1,0.6,0.1,0.6,0.6,0.6,0.6,0.6,0.6,0.6,0.5,0.5,0.5,0.6,0.51,0.51,0.51,0.51,0.51,0.3,0.3,0.3,0.3,0.3,0.4,0.4,0.4,0.4,0.4,0.6,0.2,0.6,0.6,0.6,0.55,0.55,0.55,0.55,0.55,0.6,0.5,0.5,0.5,0.6,0.71,0.65,0.65,0.65,0.65,0.6,0.1,0.6,0.1,0.6,0.6,0.6,0.6,0.6,0.6,0.6,0.5,0.5,0.5,0.6
0.51,0.51,0.51,0.51,0.51,0.4,0.4,0.4,0.4,0.4,0.5,0.5,0.5,0.5,0.5,0.6,0.2,0.6,0.6,0.6,0.55,0.55,0.55,0.55,0.55,0.6,0.4,0.4,0.4,0.6,0.71,0.65,0.65,0.65,0.65,0.6,0.1,0.6,0.1,0.6,0.6,0.6,0.6,0.6,0.6,0.6,0.4,0.4,0.4,0.6,0.51,0.51,0.51,0.51,0.51,0.4,0.4,0.4,0.4,0.4,0.5,0.5,0.5,0.5,0.5,0.6,0.2,0.6,0.6,0.6,0.55,0.55,0.55,0.55,0.55,0.6,0.4,0.4,0.4,0.6,0.71,0.65,0.65,0.65,0.65,0.6,0.1,0.6,0.1,0.6,0.6,0.6,0.6,0.6,0.6,0.6,0.4,0.4,0.4,0.6
0.51,0.51,0.51,0.51,0.51,0.4,0.4,0.4,0.4,0.4,0.5,0.5,0.5,0.5,0.5,0.6,0.2,0.6,0.6,0.6,0.55,0.55,0.55,0.55,0.55,0.5,0.4,0.4,0.4,0.5,0.71,0.65,0.65,0.65,0.65,0.6,0.1,0.6,0.1,0.6,0.6,0.6,0.6,0.6,0.6,0.5,0.4,0.4,0.4,0.5,0.51,0.51,0.51,0.51,0.51,0.4,0.4,0.4,0.4,0.4,0.5,0.5,0.5,0.5,0.5,0.6,0.2,0.6,0.6,0.6,0.55,0.55,0.55,0.55,0.55,0.5,0.4,0.4,0.4,0.5,0.71,0.65,0.65,0.65,0.65,0.6,0.1,0.6,0.1,0.6,0.6,0.6,0.6,0.6,0.6,0.5,0.4,0.4,0.4,0.5
0.59,0.59,0.59,0.59,0.59,0.4,0.4,0.4,0.4,0.4,0.5,0.5,0.5,0.5,0.5,0.7,0.2,0.7,0.7,0.6,0.55,0.55,0.55,0.55,0.55,0.4,0.4,0.4,0.4,0.4,0.79,0.65,0.65,0.65,0.65,0.9,0.1,0.9,0.1,0.9,0.9,0.9,0.9,0.9,0.9,0.4,0.4,0.4,0.4,0.4,0.59,0.59,0.59,0.59,0.59,0.4,0.4,0.4,0.4,0.4,0.5,0.5,0.5,0.5,0.5,0.7,0.2,0.7,0.7,0.6,0.55,0.55,0.55,0.55,0.55,0.4,0.4,0.4,0.4,0.4,0.79,0.65,0.65,0.65,0.65,0.9,0.1,0.9,0.1,0.9,0.9,0.9,0.9,0.9,0.9,0.4,0.4,0.4,0.4,0.4
0.51,0.51,0.51,0.51,0.51,0.4,0.4,0.4,0.4,0.4,0.5,0.5,0.5,0.5,0.5,0.7,0.2,0.7,0.7,0.6,0.55,0.55,0.55,0.55,0.55,0.2,0.2,0.2,0.2,0.2,0.71,0.65,0.65,0.65,0.65,0.6,0.1,0.6,0.1,0.6,0.6,0.6,0.6,0.6,0.6,0.2,0.2,0.2,0.2,0.2,0.51,0.51,0.51,0.51,0.51,0.4,0.4,0.4,0.4,0.4,0.5,0.5,0.5,0.5,0.5,0.7,0.2,0.7,0.7,0.6,0.55,0.55,0.55,0.55,0.55,0.2,0.2,0.2,0.2,0.2,0.71,0.65,0.65,0.65,0.65,0.6,0.1,0.6,0.1,0.6,0.6,0.6,0.6,0.6,0.6,0.2,0.2,0.2,0.2,0.2
0.51,0.51,0.51,0.51,0.51,0.4,0.4,0.4,0.4,0.4,0.5,0.5,0.5,0.5,0.5,0.7,0.2,0.7,0.7,0.6,0.55,0.55,0.55,0.55,0.55,0.1,0.1,0.1,0.1,0.1,0.71,0.65,0.65,0.65,0.65,0.6,0.1,0.6,0.1,0.6,0.6,0.6,0.6,0.6,0.6,0.1,0.1,0.1,0.1,0.1,0.51,0.51,0.51,0.51,0.51,0.4,0.4,0.4,0.4,0.4,0.5,0.5,0.5,0.5,0.5,0.7,0.2,0.7,0.7,0.6,0.55,0.55,0.55,0.55,0.55,0.1,0.1,0.1,0.1,0.1,0.71,0.65,0.65,0.65,0.65,0.6,0.1,0.6,0.1,0.6,0.6,0.6,0.6,0.6,0.6,0.1,0.1,0.1,0.1,0.1
0.56,0.56,0.56,0.56,0.56,0.4,0.4,0.4,0.4,0.4,0.5,0.5,0.5,0.5,0.5,0.7,0.2,0.7,0.7,0.6,0.6,0.6,0.6,0.6,0.6,0.1,0.1,0.1,0.1,0.1,0.76,0.65,0.65,0.65,0.65,0.7,0.1,0.7,0.1,0.7,0.7,0.7,0.7,0.7,0.7,0.1,0.1,0.1,0.1,0.1,0.56,0.56,0.56,0.56,0.56,0.4,0.4,0.4,0.4,0.4,0.5,0.5,0.5,0.5,0.5,0.7,0.2,0.7,0.7,0.6,0.6,0.6,0.6,0.6,0.6,0.1,0.1,0.1,0.1,0.1,0.76,0.65,0.65,0.65,0.65,0.7,0.1,0.7,0.1,0.7,0.7,0.7,0.7,0.7,0.7,0.1,0.1,0.1,0.1,0.1
0.57,0.57,0.57,0.57,0.57,0.4,0.4,0.4,0.4,0.4,0.5,0.5,0.5,0.5,0.5,0.7,0.2,0.7,0.7,0.6,0.6,0.6,0.6,0.6,0.6,0.1,0.1,0.1,0.1,0.1,0.77,0.65,0.65,0.65,0.65,0.75,0.1,0.75,0.1,0.75,0.75,0.75,0.75,0.75,0.75,0.1,0.1,0.1,0.1,0.1,0.57,0.57,0.57,0.57,0.57,0.4,0.4,0.4,0.4,0.4,0.5,0.5,0.5,0.5,0.5,0.7,0.2,0.7,0.7,0.6,0.6,0.6,0.6,0.6,0.6,0.1,0.1,0.1,0.1,0.1,0.77,0.65,0.65,0.65,0.65,0.75,0.1,0.75,0.1,0.75,0.75,0.75,0.75,0.75,0.75,0.1,0.1,0.1,0.1,0.1
0.58,0.58,0.58,0.58,0.58,0.4,0.4,0.4,0.4,0.4,0.5,0.5,0.5,0.5,0.5,0.7,0.2,0.7,0.7,0.6,0.6,0.6,0.6,0.6,0.6,0.1,0.1,0.1,0.1,0.1,0.78,0.65,0.65,0.65,0.65,0.8,0.1,0.8,0.1,0.8,0.8,0.8,0.8,0.8,0.8,0.1,0.1,0.1,0.1,0.1,0.58,0.58,0.58,0.58,0.58,0.4,0.4,0.4,0.4,0.4,0.5,0.5,0.5,0.5,0.5,0.7,0.2,0.7,0.7,0.6,0.6,0.6,0.6,0.6,0.6,0.1,0.1,0.1,0.1,0.1,0.78,0.65,0.65,0.65,0.65,0.8,0.1,0.8,0.1,0.8,0.8,0.8,0.8,0.8,0.8,0.1,0.1,0.1,0.1,0.1
0.62,0.62,0.62,0.62,0.62,0.4,0.4,0.4,0.4,0.4,0.5,0.5,0.5,0.5,0.5,0.7,0.2,0.7,0.7,0.6,0.65,0.65,0.65,0.65,0.65,0.1,0.1,0.1,0.1,0.1,0.82,0.65,0.65,0.65,0.65,0.85,0.1,0.85,0.1,0.85,0.85,0.85,0.85,0.85,0.85,0.1,0.1,0.1,0.1,0.1,0.62,0.62,0.62,0.62,0.62,0.4,0.4,0.4,0.4,0.4,0.5,0.5,0.5,0.5,0.5,0.7,0.2,0.7,0.7,0.6,0.65,0.65,0.65,0.65,0.65,0.1,0.1,0.1,0.1,0.1,0.82,0.65,0.65,0.65,0.65,0.85,0.1,0.85,0.1,0.85,0.85,0.85,0.85,0.85,0.85,0.1,0.1,0.1,0.1,0.1
0.65,0.65,0.65,0.65,0.65,0.5,0.5,0.5,0.5,0.5,0.6,0.6,0.6,0.6,0.6,0.7,0.2,0.7,0.7,0.6,0.7,0.7,0.7,0.7,0.7,0.1,0.1,0.1,0.1,0.1,0.85,0.65,0.65,0.65,0.65,0.9,0.1,0.9,0.1,0.9,0.9,0.9,0.9,0.9,0.9,0.1,0.1,0.1,0.1,0.1,0.65,0.65,0.65,0.65,0.65,0.5,0.5,0.5,0.5,0.5,0.6,0.6,0.6,0.6,0.6,0.7,0.2,0.7,0.7,0.6,0.7,0.7,0.7,0.7,0.7,0.1,0.1,0.1,0.1,0.1,0.85,0.65,0.65,0.65,0.65,0.9,0.1,0.9,0.1,0.9,0.9,0.9,0.9,0.9,0.9,0.1,0.1,0.1,0.1,0.1
0.67,0.67,0.67,0.67,0.67,0.5,0.5,0.5,0.5,0.5,0.6,0.6,0.6,0.6,0.6,0.7,0.2,0.7,0.7,0.6,0.7,0.7,0.7,0.7,0.7,0.1,0.1,0.1,0.1,0.1,0.87,0.65,0.65,0.65,0.65,1,0.1,1,0.1,1,1,1,1,1,1,0.1,0.1,0.1,0.1,0.1,0.67,0.67,0.67,0.67,0.67,0.5,0.5,0.5,0.5,0.5,0.6,0.6,0.6,0.6,0.6,0.7,0.2,0.7,0.7,0.6,0.7,0.7,0.7,0.7,0.7,0.1,0.1,0.1,0.1,0.1,0.87,0.65,0.65,0.65,0.65,1,0.1,1,0.1,1,1,1,1,1,1,0.1,0.1,0.1,0.1,0.1
0.67,0.67,0.67,0.67,0.67,0.5,0.5,0.5,0.5,0.5,0.6,0.6,0.6,0.6,0.6,0.7,0.2,0.7,0.7,0.6,0.7,0.7,0.7,0.7,0.7,0.1,0.1,0.1,0.1,0.1,0.87,0.65,0.65,0.65,0.65,1,0.1,1,0.1,1,1,1,1,1,1,0.1,0.1,0.1,0.1,0.1,0.67,0.67,0.67,0.67,0.67,0.5,0.5,0.5,0.5,0.5,0.6,0.6,0.6,0.6,0.6,0.7,0.2,0.7,0.7,0.6,0.7,0.7,0.7,0.7,0.7,0.1,0.1,0.1,0.1,0.1,0.87,0.65,0.65,0.65,0.65,1,0.1,1,0.1,1,1,1,1,1,1,0.1,0.1,0.1,0.1,0.1
0.67,0.67,0.67,0.67,0.67,0.5,0.5,0.5,0.5,0.5,0.6,0.6,0.6,0.6,0.6,0.7,0.2,0.7,0.7,0.6,0.7,0.7,0.7,0.7,0.7,0.1,0.1,0.1,0.1,0.1,0.87,0.65,0.65,0.65,0.65,1,0.1,1,0.1,1,1,1,1,1,1,0.1,0.1,0.1,0.1,0.1,0.67,0.67,0.67,0.67,0.67,0.5,0.5,0.5,0.5,0.5,0.6,0.6,0.6,0.6,0.6,0.7,0.2,0.7,0.7,0.6,0.7,0.7,0.7,0.7,0.7,0.1,0.1,0.1,0.1,0.1,0.87,0.65,0.65,0.65,0.65,1,0.1,1,0.1,1,1,1,1,1,1,0.1,0.1,0.1,0.1,0.1
0.67,0.67,0.67,0.67,0.67,0.5,0.5,0.5,0.5,0.5,0.6,0.6,0.6,0.6,0.6,0.6,0.2,0.6,0.6,0.6,0.7,0.7,0.7,0.7,0.7,0.1,0.1,0.1,0.1,0.1,0.87,0.65,0.65,0.65,0.65,1,0.1,1,0.1,1,1,1,1,1,1,0.1,0.1,0.1,0.1,0.1,0.67,0.67,0.67,0.67,0.67,0.5,0.5,0.5,0.5,0.5,0.6,0.6,0.6,0.6,0.6,0.6,0.2,0.6,0.6,0.6,0.7,0.7,0.7,0.7,0.7,0.1,0.1,0.1,0.1,0.1,0.87,0.65,0.65,0.65,0.65,1,0.1,1,0.1,1,1,1,1,1,1,0.1,0.1,0.1,0.1,0.1
