﻿region,category,product,nat.act.matrix,decay,cpc.min,cpc.max,budget.cap.old,budget.cap,query.rate,ctr_inac,ctr_exp,ctr_pur,search.matrix,hill.slope,hill.ec,tv.matrix,tv.base.budget.old,tv.base.budget
1,1,1,0.00064,0.01,0.6,1,2100,4048.224854,6,0.01,0.2,0.43,0.81,4,1,0.7,15000,18397.41081
1,1,2,0.000128,0.016,0.6,1,2100,1807.243234,1.2,0.01,0.15,0.265,0.37,4,1.56,0.26,15000,6324.109932
1,1,3,0.000192,0.04,0.6,0.9,2100,2240.98162,1.2,0.01,0.15,0.265,0.37,4,1.56,0.26,15000,6324.109932
1,1,4,0.000064,0.016,0.6,0.9,2100,2457.850688,1.2,0.01,0.15,0.265,0.37,4,1.56,0.26,15000,6899.029055
1,1,5,0.000128,0.008,0.6,0.9,2100,2602.430317,1.2,0.01,0.15,0.265,0.37,4,1.56,0.26,15000,8048.867162
1,2,6,0.000256,0.008,0.6,0.7,2100,2963.878764,1.44,0.01,0.16,0.276,0.48,1,1.4,0.315,15000,8048.867162
1,2,7,0.000128,0.016,0.6,0.7,2100,2963.878764,1.44,0.01,0.16,0.276,0.48,1,1.6,0.315,15000,6899.029055
1,2,8,0.000256,0.016,0.6,0.7,2100,2963.878764,1.44,0.01,0.16,0.276,0.48,1,1.7,0.315,15000,6324.109932
1,2,9,0.000192,0.008,0.6,0.7,2100,2674.720006,1.44,0.01,0.16,0.276,0.48,1,1.9,0.315,15000,6324.109932
1,2,10,0.000384,0.008,0.6,0.7,2100,2819.299385,1.44,0.01,0.16,0.276,0.48,1,1.2,0.315,15000,8048.867162
1,3,11,0.00128,0.8,0.6,1,2100,1373.504848,4.8,0.01,0.2,0.43,0.81,4,1,0.59,15000,5749.19081
1,3,12,0.00064,0.4,0.6,0.9,2100,1590.373916,3.6,0.01,0.19,0.375,0.7,4,1.2,0.48,15000,4599.352703
1,3,13,0.000512,0.32,0.6,0.9,2100,1373.504848,2.4,0.01,0.18,0.32,0.59,1,1.3,0.37,15000,4599.352703
1,3,14,0.000128,0.32,0.6,0.7,2100,1012.056151,1.2,0.01,0.17,0.265,0.48,1,1.4,0.26,15000,2874.595474
1,3,15,0.000064,0.4,0.6,0.7,2100,867.4767722,1.2,0.01,0.16,0.232,0.37,4,1.5,0.26,15000,1724.757229
1,4,16,0.000064,0.48,0.6,0.7,2100,1156.63553,1.2,0.01,0.15,0.265,0.425,4,1.56,0.37,15000,2874.595474
1,4,17,0.0000384,0.56,0.6,0.7,2100,0,1.2,0.01,0.15,0.232,0.37,1,1.6,0.26,15000,0
1,4,18,0.0000896,0.64,0.3,0.5,2100,867.4767722,1.2,0.01,0.15,0.276,0.26,4,1.2,0.37,15000,5174.271825
1,4,19,0.0001152,0.72,0.3,0.4,2100,1012.056151,1.2,0.01,0.15,0.221,0.282,4,2,0.26,15000,1149.838107
1,4,20,0.00064,0.8,0.2,0.3,2100,1662.663855,1.2,0.01,0.15,0.254,0.315,1,2.6,0.59,15000,3449.514459
1,5,21,0.000256,0.064,0.6,0.7,2100,3542.196778,4.8,0.01,0.2,0.43,0.81,4,1.1,0.48,15000,12073.30088
1,5,22,0.000128,0.08,0.6,1.2,2100,2168.69193,4.8,0.01,0.21,0.408,0.7,4,1.2,0.59,15000,11498.38176
1,5,23,0.000256,0.02,0.6,0.9,2100,3108.458392,6,0.01,0.19,0.43,0.755,4,1,0.535,15000,15522.81534
1,5,24,0.000384,0.056,0.6,0.8,2100,2674.720006,3.6,0.01,0.2,0.375,0.645,4,1,0.48,15000,14372.97723
1,5,25,0.000512,0.088,0.6,0.7,2100,2240.98162,4.8,0.01,0.22,0.441,0.81,4,1.5,0.59,15000,3449.514459
1,6,26,0.00001024,0.08,0.6,0.7,2100,0,1.32,0.01,0.12,0.21,0.205,4,2,0.205,15000,0
1,6,27,0.00000768,0.16,0.6,0.7,2100,0,1.2,0.01,0.12,0.21,0.205,4,2,0.205,15000,0
1,6,28,0.00001152,0.16,0.6,0.7,2100,0,1.2,0.01,0.12,0.21,0.205,4,2,0.205,15000,0
1,6,29,0.00000512,0.16,0.6,0.8,2100,0,1.44,0.01,0.12,0.21,0.205,4,2,0.205,15000,0
1,6,30,0.00000256,0.16,0.6,0.9,2100,0,1.56,0.01,0.12,0.21,0.205,4,2,0.205,15000,0
1,7,31,0.00128,0.8,0.6,0.7,2100,0,2.4,0.01,0.2,0.32,0.48,4,1.2,0.37,15000,0
1,7,32,0.00256,0.8,0.6,1,2100,0,2.4,0.01,0.21,0.331,0.48,4,1.3,0.381,15000,0
1,7,33,0.001152,0.8,0.6,0.8,2100,0,2.52,0.01,0.22,0.353,0.59,4,1.1,0.359,15000,0
1,7,34,0.00192,0.8,0.6,0.7,2100,0,2.28,0.01,0.17,0.287,0.425,4,1.4,0.348,15000,0
1,7,35,0.002176,0.8,0.6,0.7,2100,0,2.64,0.01,0.19,0.32,0.491,4,1.5,0.326,15000,0
1,8,36,0.0000128,0.8,0.6,0.7,2100,1012.056151,6,0.01,0.25,0.485,0.81,4,1,0.7,15000,5174.271825
1,8,37,0.0000256,0.04,0.6,0.9,2100,0,1.2,0.01,0.15,0.265,0.26,1,1.56,0.172,15000,0
1,8,38,0.0000384,0.048,0.6,1.1,2100,0,1.2,0.01,0.16,0.254,0.26,1,2,0.205,15000,0
1,8,39,0.0000512,0.048,0.6,1.2,2100,0,1.2,0.01,0.11,0.21,0.271,1,2.5,0.194,15000,0
1,8,40,0.000064,0.048,0.6,0.8,2100,1084.345841,1.2,0.01,0.14,0.265,0.282,1,3,0.216,15000,5174.271825
1,9,41,0.000128,0.01,0.6,0.9,2100,6433.785852,4.8,0.01,0.2,0.375,0.7,4,1,0.7,15000,33920.22615
1,9,42,0.0000256,0.004,0.6,0.7,2100,2313.271309,1.2,0.01,0.15,0.265,0.26,4,2,0.205,15000,3449.514459
1,9,43,0.000384,0.016,0.6,0.8,2100,2240.98162,4.8,0.01,0.2,0.43,0.59,4,1,0.645,15000,12648.21986
1,9,44,0.0000128,0.016,0.6,0.9,2100,0,1.2,0.01,0.15,0.265,0.205,4,2,0.26,15000,0
1,9,45,0.00064,0.8,0.6,0.8,2100,939.7664616,4.8,0.01,0.2,0.474,0.81,4,1,0.755,15000,4024.433581
1,10,46,0.00000256,0.016,0.6,0.7,2100,2168.69193,0.6,0.01,0.15,0.32,0.205,1,2,0.205,15000,9773.624528
1,10,47,0.00000128,0.008,0.2,0.3,2100,6072.337156,0.84,0.01,0.16,0.265,0.26,1,2,0.183,15000,9198.705406
1,10,48,0.00000512,0.016,0.2,0.3,2100,3686.776157,0.96,0.01,0.17,0.32,0.227,1,2,0.205,15000,6324.109932
1,10,49,0.0000064,0.008,0.2,0.3,2100,4626.542619,1.08,0.01,0.18,0.309,0.238,1,2.1,0.216,15000,7473.948177
1,10,50,0.00000896,0.008,0.8,0.9,2100,2674.720006,4.8,0.01,0.19,0.375,0.7,1,1.2,0.7,15000,5749.19081
2,1,1,0.00064,0.01,0.8,1.2,2100,3614.486468,5.76,0.01,0.16,0.375,0.755,4,0.8,0.81,15000,31045.63068
2,1,2,0.000128,0.016,0.8,1.2,2100,1518.084227,0.96,0.01,0.11,0.21,0.315,4,1.36,0.37,15000,10923.46264
2,1,3,0.000192,0.04,0.8,1.1,2100,1879.532923,0.96,0.01,0.11,0.21,0.315,4,1.36,0.37,15000,11498.38176
2,1,4,0.000064,0.016,0.8,1.1,2100,1951.822613,0.96,0.01,0.11,0.21,0.315,4,1.36,0.37,15000,14372.97723
2,1,5,0.000128,0.008,0.8,1.1,2100,2240.98162,0.96,0.01,0.11,0.21,0.315,4,1.36,0.37,15000,14372.97723
2,2,6,0.000256,0.008,0.8,0.9,2100,2457.850688,1.2,0.01,0.12,0.221,0.425,1,1.2,0.425,15000,11498.38176
2,2,7,0.000128,0.016,0.8,0.9,2100,2530.140378,1.2,0.01,0.12,0.221,0.425,1,1.4,0.425,15000,10923.46264
2,2,8,0.000256,0.016,0.8,0.9,2100,2457.850688,1.2,0.01,0.12,0.221,0.425,1,1.5,0.425,15000,9198.705406
2,2,9,0.000192,0.008,0.8,0.9,2100,2168.69193,1.2,0.01,0.12,0.221,0.425,1,1.7,0.425,15000,9198.705406
2,2,10,0.000384,0.008,0.8,0.9,2100,2240.98162,1.2,0.01,0.12,0.221,0.425,1,1,0.425,15000,12073.30088
2,3,11,0.00128,0.8,0.8,1.2,2100,1156.63553,4.56,0.01,0.16,0.375,0.755,4,0.8,0.7,15000,9773.624528
2,3,12,0.00064,0.4,0.8,1.1,2100,1301.215158,3.36,0.01,0.15,0.32,0.645,4,1,0.59,15000,8623.786284
2,3,13,0.000512,0.32,0.8,1.1,2100,1156.63553,2.16,0.01,0.14,0.265,0.535,1,1.1,0.48,15000,6899.029055
2,3,14,0.000128,0.32,0.8,0.9,2100,795.1870827,0.96,0.01,0.13,0.21,0.425,1,1.2,0.37,15000,4599.352703
2,3,15,0.000064,0.4,0.8,0.9,2100,650.6074545,0.96,0.01,0.12,0.177,0.315,4,1.3,0.37,15000,4024.433581
2,4,16,0.000064,0.48,0.8,0.9,2100,939.7664616,0.96,0.01,0.11,0.21,0.37,4,1.36,0.48,15000,5174.271825
2,4,17,0.0000384,0.56,0.8,0.9,2100,0,0.96,0.01,0.11,0.177,0.315,1,1.4,0.37,15000,0
2,4,18,0.0000896,0.64,0.5,0.7,2100,578.317765,0.96,0.01,0.11,0.221,0.205,4,1,0.48,15000,9198.705406
2,4,19,0.0001152,0.72,0.5,0.6,2100,0,0.96,0.01,0.11,0.166,0.227,4,1.8,0.37,15000,0
2,4,20,0.00064,0.8,0.4,0.5,2100,1012.056151,0.96,0.01,0.11,0.199,0.26,1,2.4,0.7,15000,5174.271825
2,5,21,0.000256,0.064,0.8,0.9,2100,2891.589074,4.56,0.01,0.16,0.375,0.755,4,0.9,0.59,15000,20697.08716
2,5,22,0.000128,0.08,0.8,1.4,2100,2024.112302,4.56,0.01,0.17,0.353,0.645,4,1,0.7,15000,20697.08716
2,5,23,0.000256,0.02,0.8,1.1,2100,2747.009695,5.76,0.01,0.15,0.375,0.7,4,0.8,0.645,15000,25296.43987
2,5,24,0.000384,0.056,0.8,1,2100,2240.98162,3.36,0.01,0.16,0.32,0.59,4,0.8,0.59,15000,24146.60162
2,5,25,0.000512,0.088,0.8,0.9,2100,1807.243234,4.56,0.01,0.18,0.386,0.755,4,1.3,0.7,15000,6899.029055
2,6,26,0.00001024,0.08,0.8,0.9,2100,0,1.08,0.01,0.08,0.155,0.15,4,1.8,0.315,15000,0
2,6,27,0.00000768,0.16,0.8,0.9,2100,0,0.96,0.01,0.08,0.155,0.15,4,1.8,0.315,15000,0
2,6,28,0.00001152,0.16,0.8,0.9,2100,0,0.96,0.01,0.08,0.155,0.15,4,1.8,0.315,15000,0
2,6,29,0.00000512,0.16,0.8,1,2100,0,1.2,0.01,0.08,0.155,0.15,4,1.8,0.315,15000,0
2,6,30,0.00000256,0.16,0.8,1.1,2100,0,1.32,0.01,0.08,0.155,0.15,4,1.8,0.315,15000,0
2,7,31,0.00128,0.8,0.8,0.9,2100,0,2.16,0.01,0.16,0.265,0.425,4,1,0.48,15000,0
2,7,32,0.00256,0.8,0.8,1.2,2100,0,2.16,0.01,0.17,0.276,0.425,4,1.1,0.491,15000,0
2,7,33,0.001152,0.8,0.8,1,2100,0,2.28,0.01,0.18,0.298,0.535,4,0.9,0.469,15000,0
2,7,34,0.00192,0.8,0.8,0.9,2100,0,2.04,0.01,0.13,0.232,0.37,4,1.2,0.458,15000,0
2,7,35,0.002176,0.8,0.8,0.9,2100,0,2.4,0.01,0.15,0.265,0.436,4,1.3,0.436,15000,0
2,8,36,0.0000128,0.8,0.8,0.9,2100,795.1870827,5.76,0.01,0.21,0.43,0.755,4,0.8,0.81,15000,9198.705406
2,8,37,0.0000256,0.04,0.8,1.1,2100,0,0.96,0.01,0.11,0.21,0.205,1,1.36,0.282,15000,0
2,8,38,0.0000384,0.048,0.8,1.3,2100,0,0.96,0.01,0.12,0.199,0.205,1,1.8,0.315,15000,0
2,8,39,0.0000512,0.048,0.8,1.4,2100,0,0.96,0.01,0.07,0.155,0.216,1,2.3,0.304,15000,0
2,8,40,0.000064,0.048,0.8,1,2100,795.1870827,0.96,0.01,0.11,0.21,0.227,1,2.8,0.326,15000,8048.867162
2,9,41,0.000128,0.01,0.8,1.1,2100,5204.860384,4.56,0.01,0.16,0.32,0.645,4,0.8,0.81,15000,59216.66602
2,9,42,0.0000256,0.004,0.8,0.9,2100,1734.953544,0.96,0.01,0.11,0.21,0.205,4,1.8,0.315,15000,5749.19081
2,9,43,0.000384,0.016,0.8,1,2100,1734.953544,4.56,0.01,0.16,0.375,0.535,4,0.8,0.755,15000,21272.00629
2,9,44,0.0000128,0.016,0.8,1.1,2100,0,0.96,0.01,0.11,0.21,0.15,4,1.8,0.37,15000,0
2,9,45,0.00064,0.8,0.8,1,2100,795.1870827,4.56,0.01,0.16,0.419,0.755,4,0.8,0.865,15000,7473.948177
2,10,46,0.00000256,0.016,0.8,1,2100,1301.215158,0.36,0.01,0.11,0.265,0.15,1,1.8,0.315,15000,13223.13899
2,10,47,0.00000128,0.008,0.4,0.5,2100,3036.168703,0.6,0.01,0.12,0.21,0.205,1,1.8,0.293,15000,12648.21986
2,10,48,0.00000512,0.016,0.4,0.5,2100,1879.532923,0.72,0.01,0.13,0.265,0.172,1,1.8,0.315,15000,9198.705406
2,10,49,0.0000064,0.008,0.4,0.5,2100,2240.98162,0.84,0.01,0.14,0.254,0.183,1,1.9,0.326,15000,10348.54351
2,10,50,0.00000896,0.008,0.8,1,2100,2385.560999,3.6,0.01,0.15,0.265,0.59,1,1.2,0.865,15000,8623.786284
