﻿r1p1,r1p2,r1p3,r1p4,r1p5,r1p6,r1p7,r1p8,r1p9,r1p10,r1p11,r1p12,r1p13,r1p14,r1p15,r1p16,r1p17,r1p18,r1p19,r1p20,r1p21,r1p22,r1p23,r1p24,r1p25,r1p26,r1p27,r1p28,r1p29,r1p30,r1p31,r1p32,r1p33,r1p34,r1p35,r1p36,r1p37,r1p38,r1p39,r1p40,r1p41,r1p42,r1p43,r1p44,r1p45,r1p46,r1p47,r1p48,r1p49,r1p50,r2p1,r2p2,r2p3,r2p4,r2p5,r2p6,r2p7,r2p8,r2p9,r2p10,r2p11,r2p12,r2p13,r2p14,r2p15,r2p16,r2p17,r2p18,r2p19,r2p20,r2p21,r2p22,r2p23,r2p24,r2p25,r2p26,r2p27,r2p28,r2p29,r2p30,r2p31,r2p32,r2p33,r2p34,r2p35,r2p36,r2p37,r2p38,r2p39,r2p40,r2p41,r2p42,r2p43,r2p44,r2p45,r2p46,r2p47,r2p48,r2p49,r2p50
1,1,1,1,1,1,1,1,1,1,1,1,1,1,1,1,1,1,1,1,1,1,1,1,1,1,1,1,1,1,1,1,1,1,1,1,1,1,1,1,1,1,1,1,1,1,1,1,1,1,1,1,1,1,1,1,1,1,1,1,1,1,1,1,1,1,1,1,1,1,1,1,1,1,1,1,1,1,1,1,1,1,1,1,1,1,1,1,1,1,1,1,1,1,1,1,1,1,1,1
1,1,1,1,1,1,1,1,1,1,1,1,1,1,1,1,1,1,1,1,1,1,1,1,1,1,1,1,1,1,1,1,1,1,1,1,1,1,1,1,1,1,1,1,1,1,1,1,1,1,1,1,1,1,1,1,1,1,1,1,1,1,1,1,1,1,1,1,1,1,1,1,1,1,1,1,1,1,1,1,1,1,1,1,1,1,1,1,1,1,1,1,1,1,1,1,1,1,1,1
1,1,1,1,1,1,1,1,1,1,1,1,1,1,1,1,1,1,1,1,1,1,1,1,1,1,1,1,1,1,1,1,1,1,1,1,1,1,1,1,1,1,1,1,1,1,1,1,1,1,1,1,1,1,1,1,1,1,1,1,1,1,1,1,1,1,1,1,1,1,1,1,1,1,1,1,1,1,1,1,1,1,1,1,1,1,1,1,1,1,1,1,1,1,1,1,1,1,1,1
1,1,1,1,1,1,1,1,1,1,1,1,1,1,1,1,1,1,1,1,1,1,1,1,1,1,1,1,1,1,1,1,1,1,1,1,1,1,1,1,1,1,1,1,1,1,1,1,1,1,1,1,1,1,1,1,1,1,1,1,1,1,1,1,1,1,1,1,1,1,1,1,1,1,1,1,1,1,1,1,1,1,1,1,1,1,1,1,1,1,1,1,1,1,1,1,1,1,1,1
1,1,1,1,1,1,1,1,1,1,1,1,1,1,1,1,1,1,1,1,1,1,1,1,1,1,1,1,1,1,1,1,1,1,1,1,1,1,1,1,1,1,1,1,1,1,1,1,1,1,1,1,1,1,1,1,1,1,1,1,1,1,1,1,1,1,1,1,1,1,1,1,1,1,1,1,1,1,1,1,1,1,1,1,1,1,1,1,1,1,1,1,1,1,1,1,1,1,1,1
1,1,1,1,1,1,1,1,1,1,1,1,1,1,1,1,1,1,1,1,1,1,1,1,1,1,1,1,1,1,1,1,1,1,1,1,1,1,1,1,1,1,1,1,1,1,1,1,1,1,1,1,1,1,1,1,1,1,1,1,1,1,1,1,1,1,1,1,1,1,1,1,1,1,1,1,1,1,1,1,1,1,1,1,1,1,1,1,1,1,1,1,1,1,1,1,1,1,1,1
1,1,1,1,1,1,1,1,1,1,1,1,1,1,1,1,1,1,1,1,1,1,1,1,1,1,1,1,1,1,1,1,1,1,1,1,1,1,1,1,1,1,1,1,1,1,1,1,1,1,1,1,1,1,1,1,1,1,1,1,1,1,1,1,1,1,1,1,1,1,1,1,1,1,1,1,1,1,1,1,1,1,1,1,1,1,1,1,1,1,1,1,1,1,1,1,1,1,1,1
1,1,1,1,1,1,1,1,1,1,1,1,1,1,1,1,1,1,1,1,1,1,1,1,1,1,1,1,1,1,1,1,1,1,1,1,1,1,1,1,1,1,1,1,1,1,1,1,1,1,1,1,1,1,1,1,1,1,1,1,1,1,1,1,1,1,1,1,1,1,1,1,1,1,1,1,1,1,1,1,1,1,1,1,1,1,1,1,1,1,1,1,1,1,1,1,1,1,1,1
1,1,1,1,1,1,1,1,1,1,1,1,1,1,1,1,1,1,1,1,1,1,1,1,1,1,1,1,1,1,1,1,1,1,1,1,1,1,1,1,1,1,1,1,1,1,1,1,1,1,1,1,1,1,1,1,1,1,1,1,1,1,1,1,1,1,1,1,1,1,1,1,1,1,1,1,1,1,1,1,1,1,1,1,1,1,1,1,1,1,1,1,1,1,1,1,1,1,1,1
1,1,1,1,1,1,1,1,1,1,1,1,1,1,1,1,1,1,1,1,1,1,1,1,1,1,1,1,1,1,1,1,1,1,1,1,1,1,1,1,1,1,1,1,1,1,1,1,1,1,1,1,1,1,1,1,1,1,1,1,1,1,1,1,1,1,1,1,1,1,1,1,1,1,1,1,1,1,1,1,1,1,1,1,1,1,1,1,1,1,1,1,1,1,1,1,1,1,1,1
1,1,1,1,1,1,1,1,1,1,1,1,1,1,1,1,1,1,1,1,1,1,1,1,1,1,1,1,1,1,1,1,1,1,1,1,1,1,1,1,1,1,1,1,1,1,1,1,1,1,1,1,1,1,1,1,1,1,1,1,1,1,1,1,1,1,1,1,1,1,1,1,1,1,1,1,1,1,1,1,1,1,1,1,1,1,1,1,1,1,1,1,1,1,1,1,1,1,1,1
1,1,1,1,1,1,1,1,1,1,1,1,1,1,1,1,1,1,1,1,1,1,1,1,1,1,1,1,1,1,1,1,1,1,1,1,1,1,1,1,1,1,1,1,1,1,1,1,1,1,1,1,1,1,1,1,1,1,1,1,1,1,1,1,1,1,1,1,1,1,1,1,1,1,1,1,1,1,1,1,1,1,1,1,1,1,1,1,1,1,1,1,1,1,1,1,1,1,1,1
1,1,1,1,1,1,1,1,1,1,1,1,1,1,1,1,1,1,1,1,1,1,1,1,1,1,1,1,1,1,1,1,1,1,1,1,1,1,1,1,1,1,1,1,1,1,1,1,1,1,1,1,1,1,1,1,1,1,1,1,1,1,1,1,1,1,1,1,1,1,1,1,1,1,1,1,1,1,1,1,1,1,1,1,1,1,1,1,1,1,1,1,1,1,1,1,1,1,1,1
1,1,1,1,1,1,1,1,1,1,1,1,1,1,1,1,1,1,1,1,1,1,1,1,1,1,1,1,1,1,1,1,1,1,1,1,1,1,1,1,1,1,1,1,1,1,1,1,1,1,1,1,1,1,1,1,1,1,1,1,1,1,1,1,1,1,1,1,1,1,1,1,1,1,1,1,1,1,1,1,1,1,1,1,1,1,1,1,1,1,1,1,1,1,1,1,1,1,1,1
1,1,1,1,1,1,1,1,1,1,1,1,1,1,1,1,1,1,1,1,1,1,1,1,1,1,1,1,1,1,1,1,1,1,1,1,1,1,1,1,1,1,1,1,1,1,1,1,1,1,1,1,1,1,1,1,1,1,1,1,1,1,1,1,1,1,1,1,1,1,1,1,1,1,1,1,1,1,1,1,1,1,1,1,1,1,1,1,1,1,1,1,1,1,1,1,1,1,1,1
1,1,1,1,1,1,1,1,1,1,1,1,1,1,1,1,1,1,1,1,1,1,1,1,1,1,1,1,1,1,1,1,1,1,1,1,1,1,1,1,1,1,1,1,1,1,1,1,1,1,1,1,1,1,1,1,1,1,1,1,1,1,1,1,1,1,1,1,1,1,1,1,1,1,1,1,1,1,1,1,1,1,1,1,1,1,1,1,1,1,1,1,1,1,1,1,1,1,1,1
1,1,1,1,1,1,1,1,1,1,1,1,1,1,1,1,1,1,1,1,1,1,1,1,1,1,1,1,1,1,1,1,1,1,1,1,1,1,1,1,1,1,1,1,1,1,1,1,1,1,1,1,1,1,1,1,1,1,1,1,1,1,1,1,1,1,1,1,1,1,1,1,1,1,1,1,1,1,1,1,1,1,1,1,1,1,1,1,1,1,1,1,1,1,1,1,1,1,1,1
1,1,1,1,1,1,1,1,1,1,1,1,1,1,1,1,1,1,1,1,1,1,1,1,1,1,1,1,1,1,1,1,1,1,1,1,1,1,1,1,1,1,1,1,1,1,1,1,1,1,1,1,1,1,1,1,1,1,1,1,1,1,1,1,1,1,1,1,1,1,1,1,1,1,1,1,1,1,1,1,1,1,1,1,1,1,1,1,1,1,1,1,1,1,1,1,1,1,1,1
1,1,1,1,1,1,1,1,1,1,1,1,1,1,1,1,1,1,1,1,1,1,1,1,1,1,1,1,1,1,1,1,1,1,1,1,1,1,1,1,1,1,1,1,1,1,1,1,1,1,1,1,1,1,1,1,1,1,1,1,1,1,1,1,1,1,1,1,1,1,1,1,1,1,1,1,1,1,1,1,1,1,1,1,1,1,1,1,1,1,1,1,1,1,1,1,1,1,1,1
1,1,1,1,1,1,1,1,1,1,1,1,1,1,1,1,1,1,1,1,1,1,1,1,1,1,1,1,1,1,1,1,1,1,1,1,1,1,1,1,1,1,1,1,1,1,1,1,1,1,1,1,1,1,1,1,1,1,1,1,1,1,1,1,1,1,1,1,1,1,1,1,1,1,1,1,1,1,1,1,1,1,1,1,1,1,1,1,1,1,1,1,1,1,1,1,1,1,1,1
1,1,1,1,1,1,1,1,1,1,1,1,1,1,1,1,1,1,1,1,1,1,1,1,1,1,1,1,1,1,1,1,1,1,1,1,1,1,1,1,1,1,1,1,1,1,1,1,1,1,1,1,1,1,1,1,1,1,1,1,1,1,1,1,1,1,1,1,1,1,1,1,1,1,1,1,1,1,1,1,1,1,1,1,1,1,1,1,1,1,1,1,1,1,1,1,1,1,1,1
1,1,1,1,1,1,1,1,1,1,1,1,1,1,1,1,1,1,1,1,1,1,1,1,1,1,1,1,1,1,1,1,1,1,1,1,1,1,1,1,1,1,1,1,1,1,1,1,1,1,1,1,1,1,1,1,1,1,1,1,1,1,1,1,1,1,1,1,1,1,1,1,1,1,1,1,1,1,1,1,1,1,1,1,1,1,1,1,1,1,1,1,1,1,1,1,1,1,1,1
1,1,1,1,1,1,1,1,1,1,1,1,1,1,1,1,1,1,1,1,1,1,1,1,1,1,1,1,1,1,1,1,1,1,1,1,1,1,1,1,1,1,1,1,1,1,1,1,1,1,1,1,1,1,1,1,1,1,1,1,1,1,1,1,1,1,1,1,1,1,1,1,1,1,1,1,1,1,1,1,1,1,1,1,1,1,1,1,1,1,1,1,1,1,1,1,1,1,1,1
1,1,1,1,1,1,1,1,1,1,1,1,1,1,1,1,1,1,1,1,1,1,1,1,1,1,1,1,1,1,1,1,1,1,1,1,1,1,1,1,1,1,1,1,1,1,1,1,1,1,1,1,1,1,1,1,1,1,1,1,1,1,1,1,1,1,1,1,1,1,1,1,1,1,1,1,1,1,1,1,1,1,1,1,1,1,1,1,1,1,1,1,1,1,1,1,1,1,1,1
1,1,1,1,1,1,1,1,1,1,1,1,1,1,1,1,1,1,1,1,1,1,1,1,1,1,1,1,1,1,1,1,1,1,1,1,1,1,1,1,1,1,1,1,1,1,1,1,1,1,1,1,1,1,1,1,1,1,1,1,1,1,1,1,1,1,1,1,1,1,1,1,1,1,1,1,1,1,1,1,1,1,1,1,1,1,1,1,1,1,1,1,1,1,1,1,1,1,1,1
1,1,1,1,1,1,1,1,1,1,1,1,1,1,1,1,1,1,1,1,1,1,1,1,1,1,1,1,1,1,1,1,1,1,1,1,1,1,1,1,1,1,1,1,1,1,1,1,1,1,1,1,1,1,1,1,1,1,1,1,1,1,1,1,1,1,1,1,1,1,1,1,1,1,1,1,1,1,1,1,1,1,1,1,1,1,1,1,1,1,1,1,1,1,1,1,1,1,1,1
1,1,1,1,1,1,1,1,1,1,1,1,1,1,1,1,1,1,1,1,1,1,1,1,1,1,1,1,1,1,1,1,1,1,1,1,1,1,1,1,1,1,1,1,1,1,1,1,1,1,1,1,1,1,1,1,1,1,1,1,1,1,1,1,1,1,1,1,1,1,1,1,1,1,1,1,1,1,1,1,1,1,1,1,1,1,1,1,1,1,1,1,1,1,1,1,1,1,1,1
1,1,1,1,1,1,1,1,1,1,1,1,1,1,1,1,1,1,1,1,1,1,1,1,1,1,1,1,1,1,1,1,1,1,1,1,1,1,1,1,1,1,1,1,1,1,1,1,1,1,1,1,1,1,1,1,1,1,1,1,1,1,1,1,1,1,1,1,1,1,1,1,1,1,1,1,1,1,1,1,1,1,1,1,1,1,1,1,1,1,1,1,1,1,1,1,1,1,1,1
1,1,1,1,1,1,1,1,1,1,1,1,1,1,1,1,1,1,1,1,1,1,1,1,1,1,1,1,1,1,1,1,1,1,1,1,1,1,1,1,1,1,1,1,1,1,1,1,1,1,1,1,1,1,1,1,1,1,1,1,1,1,1,1,1,1,1,1,1,1,1,1,1,1,1,1,1,1,1,1,1,1,1,1,1,1,1,1,1,1,1,1,1,1,1,1,1,1,1,1
1,1,1,1,1,1,1,1,1,1,1,1,1,1,1,1,1,1,1,1,1,1,1,1,1,1,1,1,1,1,1,1,1,1,1,1,1,1,1,1,1,1,1,1,1,1,1,1,1,1,1,1,1,1,1,1,1,1,1,1,1,1,1,1,1,1,1,1,1,1,1,1,1,1,1,1,1,1,1,1,1,1,1,1,1,1,1,1,1,1,1,1,1,1,1,1,1,1,1,1
1,1,1,1,1,1,1,1,1,1,1,1,1,1,1,1,1,1,1,1,1,1,1,1,1,1,1,1,1,1,1,1,1,1,1,1,1,1,1,1,1,1,1,1,1,1,1,1,1,1,1,1,1,1,1,1,1,1,1,1,1,1,1,1,1,1,1,1,1,1,1,1,1,1,1,1,1,1,1,1,1,1,1,1,1,1,1,1,1,1,1,1,1,1,1,1,1,1,1,1
1,1,1,1,1,1,1,1,1,1,1,1,1,1,1,1,1,1,1,1,1,1,1,1,1,1,1,1,1,1,1,1,1,1,1,1,1,1,1,1,1,1,1,1,1,1,1,1,1,1,1,1,1,1,1,1,1,1,1,1,1,1,1,1,1,1,1,1,1,1,1,1,1,1,1,1,1,1,1,1,1,1,1,1,1,1,1,1,1,1,1,1,1,1,1,1,1,1,1,1
1,1,1,1,1,1,1,1,1,1,1,1,1,1,1,1,1,1,1,1,1,1,1,1,1,1,1,1,1,1,1,1,1,1,1,1,1,1,1,1,1,1,1,1,1,1,1,1,1,1,1,1,1,1,1,1,1,1,1,1,1,1,1,1,1,1,1,1,1,1,1,1,1,1,1,1,1,1,1,1,1,1,1,1,1,1,1,1,1,1,1,1,1,1,1,1,1,1,1,1
1,1,1,1,1,1,1,1,1,1,1,1,1,1,1,1,1,1,1,1,1,1,1,1,1,1,1,1,1,1,1,1,1,1,1,1,1,1,1,1,1,1,1,1,1,1,1,1,1,1,1,1,1,1,1,1,1,1,1,1,1,1,1,1,1,1,1,1,1,1,1,1,1,1,1,1,1,1,1,1,1,1,1,1,1,1,1,1,1,1,1,1,1,1,1,1,1,1,1,1
1,1,1,1,1,1,1,1,1,1,1,1,1,1,1,1,1,1,1,1,1,1,1,1,1,1,1,1,1,1,1,1,1,1,1,1,1,1,1,1,1,1,1,1,1,1,1,1,1,1,1,1,1,1,1,1,1,1,1,1,1,1,1,1,1,1,1,1,1,1,1,1,1,1,1,1,1,1,1,1,1,1,1,1,1,1,1,1,1,1,1,1,1,1,1,1,1,1,1,1
1,1,1,1,1,1,1,1,1,1,1,1,1,1,1,1,1,1,1,1,1,1,1,1,1,1,1,1,1,1,1,1,1,1,1,1,1,1,1,1,1,1,1,1,1,1,1,1,1,1,1,1,1,1,1,1,1,1,1,1,1,1,1,1,1,1,1,1,1,1,1,1,1,1,1,1,1,1,1,1,1,1,1,1,1,1,1,1,1,1,1,1,1,1,1,1,1,1,1,1
1,1,1,1,1,1,1,1,1,1,1,1,1,1,1,1,1,1,1,1,1,1,1,1,1,1,1,1,1,1,1,1,1,1,1,1,1,1,1,1,1,1,1,1,1,1,1,1,1,1,1,1,1,1,1,1,1,1,1,1,1,1,1,1,1,1,1,1,1,1,1,1,1,1,1,1,1,1,1,1,1,1,1,1,1,1,1,1,1,1,1,1,1,1,1,1,1,1,1,1
1,1,1,1,1,1,1,1,1,1,1,1,1,1,1,1,1,1,1,1,1,1,1,1,1,1,1,1,1,1,1,1,1,1,1,1,1,1,1,1,1,1,1,1,1,1,1,1,1,1,1,1,1,1,1,1,1,1,1,1,1,1,1,1,1,1,1,1,1,1,1,1,1,1,1,1,1,1,1,1,1,1,1,1,1,1,1,1,1,1,1,1,1,1,1,1,1,1,1,1
1,1,1,1,1,1,1,1,1,1,1,1,1,1,1,1,1,1,1,1,1,1,1,1,1,1,1,1,1,1,1,1,1,1,1,1,1,1,1,1,1,1,1,1,1,1,1,1,1,1,1,1,1,1,1,1,1,1,1,1,1,1,1,1,1,1,1,1,1,1,1,1,1,1,1,1,1,1,1,1,1,1,1,1,1,1,1,1,1,1,1,1,1,1,1,1,1,1,1,1
1,1,1,1,1,1,1,1,1,1,1,1,1,1,1,1,1,1,1,1,1,1,1,1,1,1,1,1,1,1,1,1,1,1,1,1,1,1,1,1,1,1,1,1,1,1,1,1,1,1,1,1,1,1,1,1,1,1,1,1,1,1,1,1,1,1,1,1,1,1,1,1,1,1,1,1,1,1,1,1,1,1,1,1,1,1,1,1,1,1,1,1,1,1,1,1,1,1,1,1
1,1,1,1,1,1,1,1,1,1,1,1,1,1,1,1,1,1,1,1,1,1,1,1,1,1,1,1,1,1,1,1,1,1,1,1,1,1,1,1,1,1,1,1,1,1,1,1,1,1,1,1,1,1,1,1,1,1,1,1,1,1,1,1,1,1,1,1,1,1,1,1,1,1,1,1,1,1,1,1,1,1,1,1,1,1,1,1,1,1,1,1,1,1,1,1,1,1,1,1
1,1,1,1,1,1,1,1,1,1,1,1,1,1,1,1,1,1,1,1,1,1,1,1,1,1,1,1,1,1,1,1,1,1,1,1,1,1,1,1,1,1,1,1,1,1,1,1,1,1,1,1,1,1,1,1,1,1,1,1,1,1,1,1,1,1,1,1,1,1,1,1,1,1,1,1,1,1,1,1,1,1,1,1,1,1,1,1,1,1,1,1,1,1,1,1,1,1,1,1
1,1,1,1,1,1,1,1,1,1,1,1,1,1,1,1,1,1,1,1,1,1,1,1,1,1,1,1,1,1,1,1,1,1,1,1,1,1,1,1,1,1,1,1,1,1,1,1,1,1,1,1,1,1,1,1,1,1,1,1,1,1,1,1,1,1,1,1,1,1,1,1,1,1,1,1,1,1,1,1,1,1,1,1,1,1,1,1,1,1,1,1,1,1,1,1,1,1,1,1
1,1,1,1,1,1,1,1,1,1,1,1,1,1,1,1,1,1,1,1,1,1,1,1,1,1,1,1,1,1,1,1,1,1,1,1,1,1,1,1,1,1,1,1,1,1,1,1,1,1,1,1,1,1,1,1,1,1,1,1,1,1,1,1,1,1,1,1,1,1,1,1,1,1,1,1,1,1,1,1,1,1,1,1,1,1,1,1,1,1,1,1,1,1,1,1,1,1,1,1
1,1,1,1,1,1,1,1,1,1,1,1,1,1,1,1,1,1,1,1,1,1,1,1,1,1,1,1,1,1,1,1,1,1,1,1,1,1,1,1,1,1,1,1,1,1,1,1,1,1,1,1,1,1,1,1,1,1,1,1,1,1,1,1,1,1,1,1,1,1,1,1,1,1,1,1,1,1,1,1,1,1,1,1,1,1,1,1,1,1,1,1,1,1,1,1,1,1,1,1
1,1,1,1,1,1,1,1,1,1,1,1,1,1,1,1,1,1,1,1,1,1,1,1,1,1,1,1,1,1,1,1,1,1,1,1,1,1,1,1,1,1,1,1,1,1,1,1,1,1,1,1,1,1,1,1,1,1,1,1,1,1,1,1,1,1,1,1,1,1,1,1,1,1,1,1,1,1,1,1,1,1,1,1,1,1,1,1,1,1,1,1,1,1,1,1,1,1,1,1
1,1,1,1,1,1,1,1,1,1,1,1,1,1,1,1,1,1,1,1,1,1,1,1,1,1,1,1,1,1,1,1,1,1,1,1,1,1,1,1,1,1,1,1,1,1,1,1,1,1,1,1,1,1,1,1,1,1,1,1,1,1,1,1,1,1,1,1,1,1,1,1,1,1,1,1,1,1,1,1,1,1,1,1,1,1,1,1,1,1,1,1,1,1,1,1,1,1,1,1
1,1,1,1,1,1,1,1,1,1,1,1,1,1,1,1,1,1,1,1,1,1,1,1,1,1,1,1,1,1,1,1,1,1,1,1,1,1,1,1,1,1,1,1,1,1,1,1,1,1,1,1,1,1,1,1,1,1,1,1,1,1,1,1,1,1,1,1,1,1,1,1,1,1,1,1,1,1,1,1,1,1,1,1,1,1,1,1,1,1,1,1,1,1,1,1,1,1,1,1
1,1,1,1,1,1,1,1,1,1,1,1,1,1,1,1,1,1,1,1,1,1,1,1,1,1,1,1,1,1,1,1,1,1,1,1,1,1,1,1,1,1,1,1,1,1,1,1,1,1,1,1,1,1,1,1,1,1,1,1,1,1,1,1,1,1,1,1,1,1,1,1,1,1,1,1,1,1,1,1,1,1,1,1,1,1,1,1,1,1,1,1,1,1,1,1,1,1,1,1
1,1,1,1,1,1,1,1,1,1,1,1,1,1,1,1,1,1,1,1,1,1,1,1,1,1,1,1,1,1,1,1,1,1,1,1,1,1,1,1,1,1,1,1,1,1,1,1,1,1,1,1,1,1,1,1,1,1,1,1,1,1,1,1,1,1,1,1,1,1,1,1,1,1,1,1,1,1,1,1,1,1,1,1,1,1,1,1,1,1,1,1,1,1,1,1,1,1,1,1
1,1,1,1,1,1,1,1,1,1,1,1,1,1,1,1,1,1,1,1,1,1,1,1,1,1,1,1,1,1,1,1,1,1,1,1,1,1,1,1,1,1,1,1,1,1,1,1,1,1,1,1,1,1,1,1,1,1,1,1,1,1,1,1,1,1,1,1,1,1,1,1,1,1,1,1,1,1,1,1,1,1,1,1,1,1,1,1,1,1,1,1,1,1,1,1,1,1,1,1
1,1,1,1,1,1,1,1,1,1,1,1,1,1,1,1,1,1,1,1,1,1,1,1,1,1,1,1,1,1,1,1,1,1,1,1,1,1,1,1,1,1,1,1,1,1,1,1,1,1,1,1,1,1,1,1,1,1,1,1,1,1,1,1,1,1,1,1,1,1,1,1,1,1,1,1,1,1,1,1,1,1,1,1,1,1,1,1,1,1,1,1,1,1,1,1,1,1,1,1
1,1,1,1,1,1,1,1,1,1,1,1,1,1,1,1,1,1,1,1,1,1,1,1,1,1,1,1,1,1,1,1,1,1,1,1,1,1,1,1,1,1,1,1,1,1,1,1,1,1,1,1,1,1,1,1,1,1,1,1,1,1,1,1,1,1,1,1,1,1,1,1,1,1,1,1,1,1,1,1,1,1,1,1,1,1,1,1,1,1,1,1,1,1,1,1,1,1,1,1
1,1,1,1,1,1,1,1,1,1,1,1,1,1,1,1,1,1,1,1,1,1,1,1,1,1,1,1,1,1,1,1,1,1,1,1,1,1,1,1,1,1,1,1,1,1,1,1,1,1,1,1,1,1,1,1,1,1,1,1,1,1,1,1,1,1,1,1,1,1,1,1,1,1,1,1,1,1,1,1,1,1,1,1,1,1,1,1,1,1,1,1,1,1,1,1,1,1,1,1
1,1,1,1,1,1,1,1,1,1,1,1,1,1,1,1,1,1,1,1,1,1,1,1,1,1,1,1,1,1,1,1,1,1,1,1,1,1,1,1,1,1,1,1,1,1,1,1,1,1,1,1,1,1,1,1,1,1,1,1,1,1,1,1,1,1,1,1,1,1,1,1,1,1,1,1,1,1,1,1,1,1,1,1,1,1,1,1,1,1,1,1,1,1,1,1,1,1,1,1
1,1,1,1,1,1,1,1,1,1,1,1,1,1,1,1,1,1,1,1,1,1,1,1,1,1,1,1,1,1,1,1,1,1,1,1,1,1,1,1,1,1,1,1,1,1,1,1,1,1,1,1,1,1,1,1,1,1,1,1,1,1,1,1,1,1,1,1,1,1,1,1,1,1,1,1,1,1,1,1,1,1,1,1,1,1,1,1,1,1,1,1,1,1,1,1,1,1,1,1
1,1,1,1,1,1,1,1,1,1,1,1,1,1,1,1,1,1,1,1,1,1,1,1,1,1,1,1,1,1,1,1,1,1,1,1,1,1,1,1,1,1,1,1,1,1,1,1,1,1,1,1,1,1,1,1,1,1,1,1,1,1,1,1,1,1,1,1,1,1,1,1,1,1,1,1,1,1,1,1,1,1,1,1,1,1,1,1,1,1,1,1,1,1,1,1,1,1,1,1
1,1,1,1,1,1,1,1,1,1,1,1,1,1,1,1,1,1,1,1,1,1,1,1,1,1,1,1,1,1,1,1,1,1,1,1,1,1,1,1,1,1,1,1,1,1,1,1,1,1,1,1,1,1,1,1,1,1,1,1,1,1,1,1,1,1,1,1,1,1,1,1,1,1,1,1,1,1,1,1,1,1,1,1,1,1,1,1,1,1,1,1,1,1,1,1,1,1,1,1
1,1,1,1,1,1,1,1,1,1,1,1,1,1,1,1,1,1,1,1,1,1,1,1,1,1,1,1,1,1,1,1,1,1,1,1,1,1,1,1,1,1,1,1,1,1,1,1,1,1,1,1,1,1,1,1,1,1,1,1,1,1,1,1,1,1,1,1,1,1,1,1,1,1,1,1,1,1,1,1,1,1,1,1,1,1,1,1,1,1,1,1,1,1,1,1,1,1,1,1
1,1,1,1,1,1,1,1,1,1,1,1,1,1,1,1,1,1,1,1,1,1,1,1,1,1,1,1,1,1,1,1,1,1,1,1,1,1,1,1,1,1,1,1,1,1,1,1,1,1,1,1,1,1,1,1,1,1,1,1,1,1,1,1,1,1,1,1,1,1,1,1,1,1,1,1,1,1,1,1,1,1,1,1,1,1,1,1,1,1,1,1,1,1,1,1,1,1,1,1
1,1,1,1,1,1,1,1,1,1,1,1,1,1,1,1,1,1,1,1,1,1,1,1,1,1,1,1,1,1,1,1,1,1,1,1,1,1,1,1,1,1,1,1,1,1,1,1,1,1,1,1,1,1,1,1,1,1,1,1,1,1,1,1,1,1,1,1,1,1,1,1,1,1,1,1,1,1,1,1,1,1,1,1,1,1,1,1,1,1,1,1,1,1,1,1,1,1,1,1
1,1,1,1,1,1,1,1,1,1,1,1,1,1,1,1,1,1,1,1,1,1,1,1,1,1,1,1,1,1,1,1,1,1,1,1,1,1,1,1,1,1,1,1,1,1,1,1,1,1,1,1,1,1,1,1,1,1,1,1,1,1,1,1,1,1,1,1,1,1,1,1,1,1,1,1,1,1,1,1,1,1,1,1,1,1,1,1,1,1,1,1,1,1,1,1,1,1,1,1
1,1,1,1,1,1,1,1,1,1,1,1,1,1,1,1,1,1,1,1,1,1,1,1,1,1,1,1,1,1,1,1,1,1,1,1,1,1,1,1,1,1,1,1,1,1,1,1,1,1,1,1,1,1,1,1,1,1,1,1,1,1,1,1,1,1,1,1,1,1,1,1,1,1,1,1,1,1,1,1,1,1,1,1,1,1,1,1,1,1,1,1,1,1,1,1,1,1,1,1
1,1,1,1,1,1,1,1,1,1,1,1,1,1,1,1,1,1,1,1,1,1,1,1,1,1,1,1,1,1,1,1,1,1,1,1,1,1,1,1,1,1,1,1,1,1,1,1,1,1,1,1,1,1,1,1,1,1,1,1,1,1,1,1,1,1,1,1,1,1,1,1,1,1,1,1,1,1,1,1,1,1,1,1,1,1,1,1,1,1,1,1,1,1,1,1,1,1,1,1
1,1,1,1,1,1,1,1,1,1,1,1,1,1,1,1,1,1,1,1,1,1,1,1,1,1,1,1,1,1,1,1,1,1,1,1,1,1,1,1,1,1,1,1,1,1,1,1,1,1,1,1,1,1,1,1,1,1,1,1,1,1,1,1,1,1,1,1,1,1,1,1,1,1,1,1,1,1,1,1,1,1,1,1,1,1,1,1,1,1,1,1,1,1,1,1,1,1,1,1
1,1,1,1,1,1,1,1,1,1,1,1,1,1,1,1,1,1,1,1,1,1,1,1,1,1,1,1,1,1,1,1,1,1,1,1,1,1,1,1,1,1,1,1,1,1,1,1,1,1,1,1,1,1,1,1,1,1,1,1,1,1,1,1,1,1,1,1,1,1,1,1,1,1,1,1,1,1,1,1,1,1,1,1,1,1,1,1,1,1,1,1,1,1,1,1,1,1,1,1
1,1,1,1,1,1,1,1,1,1,1,1,1,1,1,1,1,1,1,1,1,1,1,1,1,1,1,1,1,1,1,1,1,1,1,1,1,1,1,1,1,1,1,1,1,1,1,1,1,1,1,1,1,1,1,1,1,1,1,1,1,1,1,1,1,1,1,1,1,1,1,1,1,1,1,1,1,1,1,1,1,1,1,1,1,1,1,1,1,1,1,1,1,1,1,1,1,1,1,1
1,1,1,1,1,1,1,1,1,1,1,1,1,1,1,1,1,1,1,1,1,1,1,1,1,1,1,1,1,1,1,1,1,1,1,1,1,1,1,1,1,1,1,1,1,1,1,1,1,1,1,1,1,1,1,1,1,1,1,1,1,1,1,1,1,1,1,1,1,1,1,1,1,1,1,1,1,1,1,1,1,1,1,1,1,1,1,1,1,1,1,1,1,1,1,1,1,1,1,1
1,1,1,1,1,1,1,1,1,1,1,1,1,1,1,1,1,1,1,1,1,1,1,1,1,1,1,1,1,1,1,1,1,1,1,1,1,1,1,1,1,1,1,1,1,1,1,1,1,1,1,1,1,1,1,1,1,1,1,1,1,1,1,1,1,1,1,1,1,1,1,1,1,1,1,1,1,1,1,1,1,1,1,1,1,1,1,1,1,1,1,1,1,1,1,1,1,1,1,1
1,1,1,1,1,1,1,1,1,1,1,1,1,1,1,1,1,1,1,1,1,1,1,1,1,1,1,1,1,1,1,1,1,1,1,1,1,1,1,1,1,1,1,1,1,1,1,1,1,1,1,1,1,1,1,1,1,1,1,1,1,1,1,1,1,1,1,1,1,1,1,1,1,1,1,1,1,1,1,1,1,1,1,1,1,1,1,1,1,1,1,1,1,1,1,1,1,1,1,1
1,1,1,1,1,1,1,1,1,1,1,1,1,1,1,1,1,1,1,1,1,1,1,1,1,1,1,1,1,1,1,1,1,1,1,1,1,1,1,1,1,1,1,1,1,1,1,1,1,1,1,1,1,1,1,1,1,1,1,1,1,1,1,1,1,1,1,1,1,1,1,1,1,1,1,1,1,1,1,1,1,1,1,1,1,1,1,1,1,1,1,1,1,1,1,1,1,1,1,1
1,1,1,1,1,1,1,1,1,1,1,1,1,1,1,1,1,1,1,1,1,1,1,1,1,1,1,1,1,1,1,1,1,1,1,1,1,1,1,1,1,1,1,1,1,1,1,1,1,1,1,1,1,1,1,1,1,1,1,1,1,1,1,1,1,1,1,1,1,1,1,1,1,1,1,1,1,1,1,1,1,1,1,1,1,1,1,1,1,1,1,1,1,1,1,1,1,1,1,1
1,1,1,1,1,1,1,1,1,1,1,1,1,1,1,1,1,1,1,1,1,1,1,1,1,1,1,1,1,1,1,1,1,1,1,1,1,1,1,1,1,1,1,1,1,1,1,1,1,1,1,1,1,1,1,1,1,1,1,1,1,1,1,1,1,1,1,1,1,1,1,1,1,1,1,1,1,1,1,1,1,1,1,1,1,1,1,1,1,1,1,1,1,1,1,1,1,1,1,1
1,1,1,1,1,1,1,1,1,1,1,1,1,1,1,1,1,1,1,1,1,1,1,1,1,1,1,1,1,1,1,1,1,1,1,1,1,1,1,1,1,1,1,1,1,1,1,1,1,1,1,1,1,1,1,1,1,1,1,1,1,1,1,1,1,1,1,1,1,1,1,1,1,1,1,1,1,1,1,1,1,1,1,1,1,1,1,1,1,1,1,1,1,1,1,1,1,1,1,1
1,1,1,1,1,1,1,1,1,1,1,1,1,1,1,1,1,1,1,1,1,1,1,1,1,1,1,1,1,1,1,1,1,1,1,1,1,1,1,1,1,1,1,1,1,1,1,1,1,1,1,1,1,1,1,1,1,1,1,1,1,1,1,1,1,1,1,1,1,1,1,1,1,1,1,1,1,1,1,1,1,1,1,1,1,1,1,1,1,1,1,1,1,1,1,1,1,1,1,1
1,1,1,1,1,1,1,1,1,1,1,1,1,1,1,1,1,1,1,1,1,1,1,1,1,1,1,1,1,1,1,1,1,1,1,1,1,1,1,1,1,1,1,1,1,1,1,1,1,1,1,1,1,1,1,1,1,1,1,1,1,1,1,1,1,1,1,1,1,1,1,1,1,1,1,1,1,1,1,1,1,1,1,1,1,1,1,1,1,1,1,1,1,1,1,1,1,1,1,1
1,1,1,1,1,1,1,1,1,1,1,1,1,1,1,1,1,1,1,1,1,1,1,1,1,1,1,1,1,1,1,1,1,1,1,1,1,1,1,1,1,1,1,1,1,1,1,1,1,1,1,1,1,1,1,1,1,1,1,1,1,1,1,1,1,1,1,1,1,1,1,1,1,1,1,1,1,1,1,1,1,1,1,1,1,1,1,1,1,1,1,1,1,1,1,1,1,1,1,1
1,1,1,1,1,1,1,1,1,1,1,1,1,1,1,1,1,1,1,1,1,1,1,1,1,1,1,1,1,1,1,1,1,1,1,1,1,1,1,1,1,1,1,1,1,1,1,1,1,1,1,1,1,1,1,1,1,1,1,1,1,1,1,1,1,1,1,1,1,1,1,1,1,1,1,1,1,1,1,1,1,1,1,1,1,1,1,1,1,1,1,1,1,1,1,1,1,1,1,1
0.817,0.817,0.817,0.817,0.817,0.912,0.912,0.912,0.912,0.912,0.936,0.936,0.936,0.936,0.936,1.006,1.006,1.006,1.006,1.006,0.833,0.833,0.833,0.833,0.833,0,0,0,0,0,0,0,0,0,0,0.741,0.741,0.741,0.741,0.741,0.621,0.621,0.621,0.621,0.621,1.669,1.669,1.669,1.669,1.669,0.867,0.867,0.867,0.867,0.867,0.887,0.887,0.887,0.887,0.887,0.877,0.877,0.877,0.877,0.877,1.037,1.037,1.037,1.037,1.037,0.802,0.802,0.802,0.802,0.802,0,0,0,0,0,0,0,0,0,0,0.716,0.716,0.716,0.716,0.716,0.643,0.643,0.643,0.643,0.643,1.556,1.556,1.556,1.556,1.556
0.836,0.836,0.836,0.836,0.836,0.605,0.605,0.605,0.605,0.605,0.661,0.661,0.661,0.661,0.661,1.003,1.003,1.003,1.003,1.003,0.811,0.811,0.811,0.811,0.811,0,0,0,0,0,0,0,0,0,0,0.729,0.729,0.729,0.729,0.729,0.669,0.669,0.669,0.669,0.669,1.763,1.763,1.763,1.763,1.763,0.832,0.832,0.832,0.832,0.832,0.6,0.6,0.6,0.6,0.6,0.683,0.683,0.683,0.683,0.683,0.964,0.964,0.964,0.964,0.964,0.826,0.826,0.826,0.826,0.826,0,0,0,0,0,0,0,0,0,0,0.703,0.703,0.703,0.703,0.703,0.621,0.621,0.621,0.621,0.621,1.78,1.78,1.78,1.78,1.78
0.79,0.79,0.79,0.79,0.79,0.645,0.645,0.645,0.645,0.645,0.701,0.701,0.701,0.701,0.701,0.989,0.989,0.989,0.989,0.989,0.828,0.828,0.828,0.828,0.828,0,0,0,0,0,0,0,0,0,0,0.58,0.58,0.58,0.58,0.58,0.479,0.479,0.479,0.479,0.479,2.144,2.144,2.144,2.144,2.144,0.809,0.809,0.809,0.809,0.809,0.58,0.58,0.58,0.58,0.58,0.703,0.703,0.703,0.703,0.703,0.925,0.925,0.925,0.925,0.925,0.825,0.825,0.825,0.825,0.825,0,0,0,0,0,0,0,0,0,0,0.598,0.598,0.598,0.598,0.598,0.448,0.448,0.448,0.448,0.448,2.216,2.216,2.216,2.216,2.216
0.791,0.791,0.791,0.791,0.791,0.603,0.603,0.603,0.603,0.603,0.683,0.683,0.683,0.683,0.683,0.993,0.993,0.993,0.993,0.993,0.832,0.832,0.832,0.832,0.832,0,0,0,0,0,0,0,0,0,0,0.703,0.703,0.703,0.703,0.703,0.633,0.633,0.633,0.633,0.633,1.658,1.658,1.658,1.658,1.658,0.859,0.859,0.859,0.859,0.859,0.598,0.598,0.598,0.598,0.598,0.714,0.714,0.714,0.714,0.714,1.001,1.001,1.001,1.001,1.001,0.839,0.839,0.839,0.839,0.839,0,0,0,0,0,0,0,0,0,0,0.711,0.711,0.711,0.711,0.711,0.592,0.592,0.592,0.592,0.592,1.583,1.583,1.583,1.583,1.583
0.964,0.964,0.964,0.964,0.964,0.585,0.585,0.585,0.585,0.585,0.685,0.685,0.685,0.685,0.685,0.952,0.952,0.952,0.952,0.952,0.934,0.934,0.934,0.934,0.934,0,0,0,0,0,0,0,0,0,0,1.012,1.012,1.012,1.012,1.012,0.96,0.96,0.96,0.96,0.96,1.606,1.606,1.606,1.606,1.606,0.947,0.947,0.947,0.947,0.947,0.569,0.569,0.569,0.569,0.569,0.682,0.682,0.682,0.682,0.682,0.958,0.958,0.958,0.958,0.958,0.897,0.897,0.897,0.897,0.897,0,0,0,0,0,0,0,0,0,0,0.99,0.99,0.99,0.99,0.99,0.928,0.928,0.928,0.928,0.928,1.602,1.602,1.602,1.602,1.602
0.897,0.897,0.897,0.897,0.897,0.866,0.866,0.866,0.866,0.866,0.881,0.881,0.881,0.881,0.881,1.011,1.011,1.011,1.011,1.011,0.956,0.956,0.956,0.956,0.956,0,0,0,0,0,0,0,0,0,0,1.012,1.012,1.012,1.012,1.012,0.889,0.889,0.889,0.889,0.889,1.628,1.628,1.628,1.628,1.628,0.928,0.928,0.928,0.928,0.928,0.879,0.879,0.879,0.879,0.879,0.902,0.902,0.902,0.902,0.902,0.914,0.914,0.914,0.914,0.914,0.9,0.9,0.9,0.9,0.9,0,0,0,0,0,0,0,0,0,0,1.05,1.05,1.05,1.05,1.05,0.944,0.944,0.944,0.944,0.944,1.677,1.677,1.677,1.677,1.677
0.933,0.933,0.933,0.933,0.933,0.909,0.909,0.909,0.909,0.909,0.909,0.909,0.909,0.909,0.909,1.019,1.019,1.019,1.019,1.019,0.88,0.88,0.88,0.88,0.88,0,0,0,0,0,0,0,0,0,0,0.993,0.993,0.993,0.993,0.993,0.942,0.942,0.942,0.942,0.942,1.675,1.675,1.675,1.675,1.675,0.919,0.919,0.919,0.919,0.919,0.91,0.91,0.91,0.91,0.91,0.904,0.904,0.904,0.904,0.904,0.96,0.96,0.96,0.96,0.96,0.895,0.895,0.895,0.895,0.895,0,0,0,0,0,0,0,0,0,0,1.009,1.009,1.009,1.009,1.009,0.901,0.901,0.901,0.901,0.901,1.699,1.699,1.699,1.699,1.699
0.936,0.936,0.936,0.936,0.936,0.899,0.899,0.899,0.899,0.899,0.907,0.907,0.907,0.907,0.907,0.959,0.959,0.959,0.959,0.959,0.885,0.885,0.885,0.885,0.885,0,0,0,0,0,0,0,0,0,0,1.014,1.014,1.014,1.014,1.014,0.934,0.934,0.934,0.934,0.934,1.598,1.598,1.598,1.598,1.598,0.959,0.959,0.959,0.959,0.959,0.901,0.901,0.901,0.901,0.901,0.925,0.925,0.925,0.925,0.925,1.004,1.004,1.004,1.004,1.004,0.897,0.897,0.897,0.897,0.897,0,0,0,0,0,0,0,0,0,0,0.948,0.948,0.948,0.948,0.948,0.96,0.96,0.96,0.96,0.96,1.729,1.729,1.729,1.729,1.729
0.976,0.976,0.976,0.976,0.976,0.898,0.898,0.898,0.898,0.898,0.937,0.937,0.937,0.937,0.937,0.936,0.936,0.936,0.936,0.936,0.905,0.905,0.905,0.905,0.905,0,0,0,0,0,0,0,0,0,0,1.009,1.009,1.009,1.009,1.009,0.897,0.897,0.897,0.897,0.897,1.459,1.459,1.459,1.459,1.459,0.968,0.968,0.968,0.968,0.968,0.895,0.895,0.895,0.895,0.895,0.891,0.891,0.891,0.891,0.891,0.987,0.987,0.987,0.987,0.987,0.873,0.873,0.873,0.873,0.873,0,0,0,0,0,0,0,0,0,0,1.012,1.012,1.012,1.012,1.012,0.882,0.882,0.882,0.882,0.882,1.433,1.433,1.433,1.433,1.433
0.948,0.948,0.948,0.948,0.948,0.912,0.912,0.912,0.912,0.912,0.889,0.889,0.889,0.889,0.889,0.927,0.927,0.927,0.927,0.927,0.896,0.896,0.896,0.896,0.896,0,0,0,0,0,0,0,0,0,0,1.025,1.025,1.025,1.025,1.025,0.905,0.905,0.905,0.905,0.905,1.511,1.511,1.511,1.511,1.511,0.941,0.941,0.941,0.941,0.941,0.909,0.909,0.909,0.909,0.909,0.885,0.885,0.885,0.885,0.885,0.997,0.997,0.997,0.997,0.997,0.903,0.903,0.903,0.903,0.903,0,0,0,0,0,0,0,0,0,0,0.979,0.979,0.979,0.979,0.979,0.92,0.92,0.92,0.92,0.92,1.385,1.385,1.385,1.385,1.385
1.013,1.013,1.013,1.013,1.013,0.856,0.856,0.856,0.856,0.856,0.91,0.91,0.91,0.91,0.91,0.985,0.985,0.985,0.985,0.985,0.867,0.867,0.867,0.867,0.867,0,0,0,0,0,0,0,0,0,0,1.05,1.05,1.05,1.05,1.05,0.941,0.941,0.941,0.941,0.941,1.495,1.495,1.495,1.495,1.495,1.001,1.001,1.001,1.001,1.001,0.844,0.844,0.844,0.844,0.844,0.935,0.935,0.935,0.935,0.935,1.021,1.021,1.021,1.021,1.021,0.933,0.933,0.933,0.933,0.933,0,0,0,0,0,0,0,0,0,0,0.924,0.924,0.924,0.924,0.924,0.923,0.923,0.923,0.923,0.923,1.486,1.486,1.486,1.486,1.486
0.981,0.981,0.981,0.981,0.981,0.869,0.869,0.869,0.869,0.869,0.924,0.924,0.924,0.924,0.924,0.982,0.982,0.982,0.982,0.982,0.864,0.864,0.864,0.864,0.864,0,0,0,0,0,0,0,0,0,0,0.899,0.899,0.899,0.899,0.899,0.93,0.93,0.93,0.93,0.93,1.457,1.457,1.457,1.457,1.457,0.977,0.977,0.977,0.977,0.977,0.873,0.873,0.873,0.873,0.873,0.902,0.902,0.902,0.902,0.902,0.976,0.976,0.976,0.976,0.976,0.915,0.915,0.915,0.915,0.915,0,0,0,0,0,0,0,0,0,0,0.891,0.891,0.891,0.891,0.891,0.877,0.877,0.877,0.877,0.877,1.543,1.543,1.543,1.543,1.543
0.956,0.956,0.956,0.956,0.956,1.18,1.18,1.18,1.18,1.18,1.133,1.133,1.133,1.133,1.133,0.992,0.992,0.992,0.992,0.992,0.911,0.911,0.911,0.911,0.911,0,0,0,0,0,0,0,0,0,0,0.875,0.875,0.875,0.875,0.875,0.874,0.874,0.874,0.874,0.874,1.373,1.373,1.373,1.373,1.373,1.017,1.017,1.017,1.017,1.017,1.251,1.251,1.251,1.251,1.251,1.117,1.117,1.117,1.117,1.117,1.001,1.001,1.001,1.001,1.001,0.927,0.927,0.927,0.927,0.927,0,0,0,0,0,0,0,0,0,0,0.899,0.899,0.899,0.899,0.899,0.974,0.974,0.974,0.974,0.974,1.355,1.355,1.355,1.355,1.355
0.966,0.966,0.966,0.966,0.966,1.182,1.182,1.182,1.182,1.182,1.157,1.157,1.157,1.157,1.157,0.976,0.976,0.976,0.976,0.976,0.884,0.884,0.884,0.884,0.884,0,0,0,0,0,0,0,0,0,0,0.866,0.866,0.866,0.866,0.866,0.919,0.919,0.919,0.919,0.919,1.189,1.189,1.189,1.189,1.189,1.002,1.002,1.002,1.002,1.002,1.176,1.176,1.176,1.176,1.176,1.134,1.134,1.134,1.134,1.134,0.995,0.995,0.995,0.995,0.995,0.926,0.926,0.926,0.926,0.926,0,0,0,0,0,0,0,0,0,0,0.92,0.92,0.92,0.92,0.92,0.949,0.949,0.949,0.949,0.949,1.221,1.221,1.221,1.221,1.221
1.118,1.118,1.118,1.118,1.118,1.184,1.184,1.184,1.184,1.184,1.146,1.146,1.146,1.146,1.146,1.085,1.085,1.085,1.085,1.085,0.863,0.863,0.863,0.863,0.863,0,0,0,0,0,0,0,0,0,0,1.318,1.318,1.318,1.318,1.318,1.383,1.383,1.383,1.383,1.383,1.052,1.052,1.052,1.052,1.052,1.102,1.102,1.102,1.102,1.102,1.167,1.167,1.167,1.167,1.167,1.184,1.184,1.184,1.184,1.184,1.075,1.075,1.075,1.075,1.075,0.942,0.942,0.942,0.942,0.942,0,0,0,0,0,0,0,0,0,0,1.244,1.244,1.244,1.244,1.244,1.26,1.26,1.26,1.26,1.26,1.062,1.062,1.062,1.062,1.062
0.972,0.972,0.972,0.972,0.972,1.217,1.217,1.217,1.217,1.217,1.166,1.166,1.166,1.166,1.166,1.077,1.077,1.077,1.077,1.077,0.867,0.867,0.867,0.867,0.867,0,0,0,0,0,0,0,0,0,0,0.841,0.841,0.841,0.841,0.841,0.94,0.94,0.94,0.94,0.94,0.538,0.538,0.538,0.538,0.538,0.985,0.985,0.985,0.985,0.985,1.128,1.128,1.128,1.128,1.128,1.085,1.085,1.085,1.085,1.085,1.073,1.073,1.073,1.073,1.073,0.879,0.879,0.879,0.879,0.879,0,0,0,0,0,0,0,0,0,0,0.871,0.871,0.871,0.871,0.871,0.931,0.931,0.931,0.931,0.931,0.573,0.573,0.573,0.573,0.573
1.017,1.017,1.017,1.017,1.017,1.207,1.207,1.207,1.207,1.207,1.141,1.141,1.141,1.141,1.141,1.054,1.054,1.054,1.054,1.054,0.888,0.888,0.888,0.888,0.888,0,0,0,0,0,0,0,0,0,0,0.873,0.873,0.873,0.873,0.873,0.885,0.885,0.885,0.885,0.885,0.282,0.282,0.282,0.282,0.282,0.975,0.975,0.975,0.975,0.975,1.165,1.165,1.165,1.165,1.165,1.103,1.103,1.103,1.103,1.103,1.076,1.076,1.076,1.076,1.076,0.926,0.926,0.926,0.926,0.926,0,0,0,0,0,0,0,0,0,0,0.878,0.878,0.878,0.878,0.878,0.888,0.888,0.888,0.888,0.888,0.274,0.274,0.274,0.274,0.274
1.091,1.091,1.091,1.091,1.091,1.21,1.21,1.21,1.21,1.21,1.086,1.086,1.086,1.086,1.086,1.051,1.051,1.051,1.051,1.051,0.973,0.973,0.973,0.973,0.973,0,0,0,0,0,0,0,0,0,0,0.969,0.969,0.969,0.969,0.969,1.075,1.075,1.075,1.075,1.075,0.276,0.276,0.276,0.276,0.276,1.018,1.018,1.018,1.018,1.018,1.193,1.193,1.193,1.193,1.193,1.205,1.205,1.205,1.205,1.205,1.021,1.021,1.021,1.021,1.021,0.922,0.922,0.922,0.922,0.922,0,0,0,0,0,0,0,0,0,0,0.953,0.953,0.953,0.953,0.953,1.093,1.093,1.093,1.093,1.093,0.284,0.284,0.284,0.284,0.284
1.085,1.085,1.085,1.085,1.085,1.208,1.208,1.208,1.208,1.208,1.15,1.15,1.15,1.15,1.15,1.114,1.114,1.114,1.114,1.114,0.992,0.992,0.992,0.992,0.992,0,0,0,0,0,0,0,0,0,0,1.048,1.048,1.048,1.048,1.048,1.161,1.161,1.161,1.161,1.161,0.269,0.269,0.269,0.269,0.269,1.055,1.055,1.055,1.055,1.055,1.229,1.229,1.229,1.229,1.229,1.146,1.146,1.146,1.146,1.146,1.117,1.117,1.117,1.117,1.117,0.935,0.935,0.935,0.935,0.935,0,0,0,0,0,0,0,0,0,0,1.066,1.066,1.066,1.066,1.066,1.112,1.112,1.112,1.112,1.112,0.271,0.271,0.271,0.271,0.271
1.102,1.102,1.102,1.102,1.102,1.194,1.194,1.194,1.194,1.194,1.164,1.164,1.164,1.164,1.164,1.035,1.035,1.035,1.035,1.035,1.003,1.003,1.003,1.003,1.003,0,0,0,0,0,0,0,0,0,0,1.19,1.19,1.19,1.19,1.19,1.204,1.204,1.204,1.204,1.204,0.266,0.266,0.266,0.266,0.266,1.065,1.065,1.065,1.065,1.065,1.151,1.151,1.151,1.151,1.151,1.121,1.121,1.121,1.121,1.121,1.082,1.082,1.082,1.082,1.082,0.963,0.963,0.963,0.963,0.963,0,0,0,0,0,0,0,0,0,0,1.15,1.15,1.15,1.15,1.15,1.174,1.174,1.174,1.174,1.174,0.278,0.278,0.278,0.278,0.278
1.196,1.196,1.196,1.196,1.196,1.2,1.2,1.2,1.2,1.2,1.084,1.084,1.084,1.084,1.084,1.085,1.085,1.085,1.085,1.085,1.083,1.083,1.083,1.083,1.083,0,0,0,0,0,0,0,0,0,0,1.292,1.292,1.292,1.292,1.292,1.31,1.31,1.31,1.31,1.31,0.267,0.267,0.267,0.267,0.267,1.204,1.204,1.204,1.204,1.204,1.189,1.189,1.189,1.189,1.189,1.167,1.167,1.167,1.167,1.167,1.089,1.089,1.089,1.089,1.089,1.079,1.079,1.079,1.079,1.079,0,0,0,0,0,0,0,0,0,0,1.271,1.271,1.271,1.271,1.271,1.319,1.319,1.319,1.319,1.319,0.267,0.267,0.267,0.267,0.267
1.15,1.15,1.15,1.15,1.15,1.476,1.476,1.476,1.476,1.476,1.376,1.376,1.376,1.376,1.376,1.083,1.083,1.083,1.083,1.083,1.099,1.099,1.099,1.099,1.099,0,0,0,0,0,0,0,0,0,0,1.232,1.232,1.232,1.232,1.232,1.356,1.356,1.356,1.356,1.356,0.27,0.27,0.27,0.27,0.27,1.303,1.303,1.303,1.303,1.303,1.479,1.479,1.479,1.479,1.479,1.428,1.428,1.428,1.428,1.428,1.087,1.087,1.087,1.087,1.087,1.101,1.101,1.101,1.101,1.101,0,0,0,0,0,0,0,0,0,0,1.298,1.298,1.298,1.298,1.298,1.407,1.407,1.407,1.407,1.407,0.275,0.275,0.275,0.275,0.275
1.318,1.318,1.318,1.318,1.318,1.386,1.386,1.386,1.386,1.386,1.331,1.331,1.331,1.331,1.331,1.086,1.086,1.086,1.086,1.086,1.16,1.16,1.16,1.16,1.16,0,0,0,0,0,0,0,0,0,0,1.345,1.345,1.345,1.345,1.345,1.565,1.565,1.565,1.565,1.565,0.273,0.273,0.273,0.273,0.273,1.27,1.27,1.27,1.27,1.27,1.405,1.405,1.405,1.405,1.405,1.349,1.349,1.349,1.349,1.349,1.069,1.069,1.069,1.069,1.069,1.107,1.107,1.107,1.107,1.107,0,0,0,0,0,0,0,0,0,0,1.4,1.4,1.4,1.4,1.4,1.588,1.588,1.588,1.588,1.588,0.267,0.267,0.267,0.267,0.267
1.308,1.308,1.308,1.308,1.308,1.466,1.466,1.466,1.466,1.466,1.386,1.386,1.386,1.386,1.386,1.12,1.12,1.12,1.12,1.12,1.186,1.186,1.186,1.186,1.186,0,0,0,0,0,0,0,0,0,0,1.399,1.399,1.399,1.399,1.399,1.557,1.557,1.557,1.557,1.557,0.254,0.254,0.254,0.254,0.254,1.249,1.249,1.249,1.249,1.249,1.429,1.429,1.429,1.429,1.429,1.38,1.38,1.38,1.38,1.38,1.079,1.079,1.079,1.079,1.079,1.166,1.166,1.166,1.166,1.166,0,0,0,0,0,0,0,0,0,0,1.31,1.31,1.31,1.31,1.31,1.5,1.5,1.5,1.5,1.5,0.269,0.269,0.269,0.269,0.269
1.269,1.269,1.269,1.269,1.269,1.435,1.435,1.435,1.435,1.435,1.377,1.377,1.377,1.377,1.377,1.055,1.055,1.055,1.055,1.055,1.126,1.126,1.126,1.126,1.126,0,0,0,0,0,0,0,0,0,0,1.369,1.369,1.369,1.369,1.369,1.536,1.536,1.536,1.536,1.536,0.268,0.268,0.268,0.268,0.268,1.26,1.26,1.26,1.26,1.26,1.453,1.453,1.453,1.453,1.453,1.32,1.32,1.32,1.32,1.32,1.074,1.074,1.074,1.074,1.074,1.119,1.119,1.119,1.119,1.119,0,0,0,0,0,0,0,0,0,0,1.349,1.349,1.349,1.349,1.349,1.464,1.464,1.464,1.464,1.464,0.263,0.263,0.263,0.263,0.263
1.254,1.254,1.254,1.254,1.254,1.429,1.429,1.429,1.429,1.429,1.409,1.409,1.409,1.409,1.409,0.978,0.978,0.978,0.978,0.978,1.19,1.19,1.19,1.19,1.19,0,0,0,0,0,0,0,0,0,0,1.346,1.346,1.346,1.346,1.346,1.499,1.499,1.499,1.499,1.499,0.27,0.27,0.27,0.27,0.27,1.272,1.272,1.272,1.272,1.272,1.476,1.476,1.476,1.476,1.476,1.361,1.361,1.361,1.361,1.361,0.991,0.991,0.991,0.991,0.991,1.126,1.126,1.126,1.126,1.126,0,0,0,0,0,0,0,0,0,0,1.447,1.447,1.447,1.447,1.447,1.491,1.491,1.491,1.491,1.491,0.27,0.27,0.27,0.27,0.27
0.742,0.742,0.742,0.742,0.742,0.583,0.583,0.583,0.583,0.583,0.682,0.682,0.682,0.682,0.682,0.969,0.969,0.969,0.969,0.969,0.738,0.738,0.738,0.738,0.738,0,0,0,0,0,0,0,0,0,0,0.542,0.542,0.542,0.542,0.542,0.52,0.52,0.52,0.52,0.52,0.263,0.263,0.263,0.263,0.263,0.756,0.756,0.756,0.756,0.756,0.596,0.596,0.596,0.596,0.596,0.69,0.69,0.69,0.69,0.69,1,1,1,1,1,0.715,0.715,0.715,0.715,0.715,0,0,0,0,0,0,0,0,0,0,0.549,0.549,0.549,0.549,0.549,0.481,0.481,0.481,0.481,0.481,0.276,0.276,0.276,0.276,0.276
0.836,0.836,0.836,0.836,0.836,0.877,0.877,0.877,0.877,0.877,0.903,0.903,0.903,0.903,0.903,1,1,1,1,1,0.811,0.811,0.811,0.811,0.811,0,0,0,0,0,0,0,0,0,0,0.599,0.599,0.599,0.599,0.599,0.595,0.595,0.595,0.595,0.595,0.274,0.274,0.274,0.274,0.274,0.807,0.807,0.807,0.807,0.807,0.873,0.873,0.873,0.873,0.873,0.955,0.955,0.955,0.955,0.955,0.988,0.988,0.988,0.988,0.988,0.814,0.814,0.814,0.814,0.814,0,0,0,0,0,0,0,0,0,0,0.606,0.606,0.606,0.606,0.606,0.641,0.641,0.641,0.641,0.641,0.257,0.257,0.257,0.257,0.257
0.849,0.849,0.849,0.849,0.849,0.858,0.858,0.858,0.858,0.858,0.899,0.899,0.899,0.899,0.899,0.964,0.964,0.964,0.964,0.964,0.884,0.884,0.884,0.884,0.884,0,0,0,0,0,0,0,0,0,0,0.596,0.596,0.596,0.596,0.596,0.578,0.578,0.578,0.578,0.578,0.263,0.263,0.263,0.263,0.263,0.838,0.838,0.838,0.838,0.838,0.866,0.866,0.866,0.866,0.866,0.928,0.928,0.928,0.928,0.928,0.927,0.927,0.927,0.927,0.927,0.91,0.91,0.91,0.91,0.91,0,0,0,0,0,0,0,0,0,0,0.632,0.632,0.632,0.632,0.632,0.602,0.602,0.602,0.602,0.602,0.27,0.27,0.27,0.27,0.27
0.858,0.858,0.858,0.858,0.858,0.861,0.861,0.861,0.861,0.861,0.917,0.917,0.917,0.917,0.917,0.862,0.862,0.862,0.862,0.862,0.901,0.901,0.901,0.901,0.901,0,0,0,0,0,0,0,0,0,0,0.624,0.624,0.624,0.624,0.624,0.625,0.625,0.625,0.625,0.625,0.274,0.274,0.274,0.274,0.274,0.838,0.838,0.838,0.838,0.838,0.881,0.881,0.881,0.881,0.881,0.922,0.922,0.922,0.922,0.922,0.956,0.956,0.956,0.956,0.956,0.907,0.907,0.907,0.907,0.907,0,0,0,0,0,0,0,0,0,0,0.639,0.639,0.639,0.639,0.639,0.626,0.626,0.626,0.626,0.626,0.274,0.274,0.274,0.274,0.274
0.841,0.841,0.841,0.841,0.841,0.828,0.828,0.828,0.828,0.828,0.911,0.911,0.911,0.911,0.911,0.988,0.988,0.988,0.988,0.988,0.883,0.883,0.883,0.883,0.883,0,0,0,0,0,0,0,0,0,0,0.616,0.616,0.616,0.616,0.616,0.578,0.578,0.578,0.578,0.578,0.284,0.284,0.284,0.284,0.284,0.845,0.845,0.845,0.845,0.845,0.889,0.889,0.889,0.889,0.889,0.943,0.943,0.943,0.943,0.943,0.912,0.912,0.912,0.912,0.912,0.899,0.899,0.899,0.899,0.899,0,0,0,0,0,0,0,0,0,0,0.6,0.6,0.6,0.6,0.6,0.613,0.613,0.613,0.613,0.613,0.271,0.271,0.271,0.271,0.271
0.893,0.893,0.893,0.893,0.893,0.901,0.901,0.901,0.901,0.901,0.943,0.943,0.943,0.943,0.943,0.969,0.969,0.969,0.969,0.969,0.893,0.893,0.893,0.893,0.893,0,0,0,0,0,0,0,0,0,0,0.759,0.759,0.759,0.759,0.759,0.788,0.788,0.788,0.788,0.788,0.278,0.278,0.278,0.278,0.278,0.868,0.868,0.868,0.868,0.868,0.903,0.903,0.903,0.903,0.903,0.9,0.9,0.9,0.9,0.9,0.877,0.877,0.877,0.877,0.877,0.912,0.912,0.912,0.912,0.912,0,0,0,0,0,0,0,0,0,0,0.713,0.713,0.713,0.713,0.713,0.781,0.781,0.781,0.781,0.781,0.267,0.267,0.267,0.267,0.267
0.953,0.953,0.953,0.953,0.953,0.879,0.879,0.879,0.879,0.879,0.896,0.896,0.896,0.896,0.896,0.954,0.954,0.954,0.954,0.954,0.915,0.915,0.915,0.915,0.915,0,0,0,0,0,0,0,0,0,0,0.87,0.87,0.87,0.87,0.87,0.919,0.919,0.919,0.919,0.919,0.271,0.271,0.271,0.271,0.271,0.918,0.918,0.918,0.918,0.918,0.903,0.903,0.903,0.903,0.903,0.903,0.903,0.903,0.903,0.903,0.932,0.932,0.932,0.932,0.932,0.913,0.913,0.913,0.913,0.913,0,0,0,0,0,0,0,0,0,0,0.88,0.88,0.88,0.88,0.88,0.943,0.943,0.943,0.943,0.943,0.278,0.278,0.278,0.278,0.278
0.95,0.95,0.95,0.95,0.95,0.901,0.901,0.901,0.901,0.901,0.881,0.881,0.881,0.881,0.881,0.944,0.944,0.944,0.944,0.944,0.897,0.897,0.897,0.897,0.897,0,0,0,0,0,0,0,0,0,0,0.869,0.869,0.869,0.869,0.869,0.866,0.866,0.866,0.866,0.866,0.272,0.272,0.272,0.272,0.272,0.918,0.918,0.918,0.918,0.918,0.871,0.871,0.871,0.871,0.871,0.924,0.924,0.924,0.924,0.924,0.982,0.982,0.982,0.982,0.982,0.881,0.881,0.881,0.881,0.881,0,0,0,0,0,0,0,0,0,0,0.83,0.83,0.83,0.83,0.83,0.93,0.93,0.93,0.93,0.93,0.278,0.278,0.278,0.278,0.278
0.901,0.901,0.901,0.901,0.901,0.813,0.813,0.813,0.813,0.813,0.89,0.89,0.89,0.89,0.89,1.012,1.012,1.012,1.012,1.012,0.836,0.836,0.836,0.836,0.836,0,0,0,0,0,0,0,0,0,0,0.871,0.871,0.871,0.871,0.871,0.925,0.925,0.925,0.925,0.925,0.277,0.277,0.277,0.277,0.277,0.953,0.953,0.953,0.953,0.953,0.842,0.842,0.842,0.842,0.842,0.897,0.897,0.897,0.897,0.897,0.931,0.931,0.931,0.931,0.931,0.902,0.902,0.902,0.902,0.902,0,0,0,0,0,0,0,0,0,0,0.907,0.907,0.907,0.907,0.907,0.915,0.915,0.915,0.915,0.915,0.276,0.276,0.276,0.276,0.276
0.963,0.963,0.963,0.963,0.963,0.897,0.897,0.897,0.897,0.897,0.895,0.895,0.895,0.895,0.895,0.929,0.929,0.929,0.929,0.929,0.895,0.895,0.895,0.895,0.895,0,0,0,0,0,0,0,0,0,0,0.845,0.845,0.845,0.845,0.845,0.941,0.941,0.941,0.941,0.941,0.268,0.268,0.268,0.268,0.268,0.952,0.952,0.952,0.952,0.952,0.92,0.92,0.92,0.92,0.92,0.937,0.937,0.937,0.937,0.937,0.913,0.913,0.913,0.913,0.913,0.88,0.88,0.88,0.88,0.88,0,0,0,0,0,0,0,0,0,0,0.892,0.892,0.892,0.892,0.892,0.985,0.985,0.985,0.985,0.985,0.297,0.297,0.297,0.297,0.297
0.912,0.912,0.912,0.912,0.912,0.888,0.888,0.888,0.888,0.888,0.925,0.925,0.925,0.925,0.925,0.909,0.909,0.909,0.909,0.909,0.888,0.888,0.888,0.888,0.888,0,0,0,0,0,0,0,0,0,0,0.886,0.886,0.886,0.886,0.886,0.938,0.938,0.938,0.938,0.938,0.262,0.262,0.262,0.262,0.262,0.975,0.975,0.975,0.975,0.975,0.898,0.898,0.898,0.898,0.898,0.886,0.886,0.886,0.886,0.886,0.914,0.914,0.914,0.914,0.914,0.948,0.948,0.948,0.948,0.948,0,0,0,0,0,0,0,0,0,0,0.946,0.946,0.946,0.946,0.946,0.972,0.972,0.972,0.972,0.972,0.273,0.273,0.273,0.273,0.273
0.916,0.916,0.916,0.916,0.916,0.912,0.912,0.912,0.912,0.912,0.954,0.954,0.954,0.954,0.954,0.967,0.967,0.967,0.967,0.967,0.869,0.869,0.869,0.869,0.869,0,0,0,0,0,0,0,0,0,0,1.021,1.021,1.021,1.021,1.021,0.93,0.93,0.93,0.93,0.93,0.294,0.294,0.294,0.294,0.294,0.968,0.968,0.968,0.968,0.968,0.918,0.918,0.918,0.918,0.918,0.881,0.881,0.881,0.881,0.881,0.958,0.958,0.958,0.958,0.958,0.943,0.943,0.943,0.943,0.943,0,0,0,0,0,0,0,0,0,0,0.998,0.998,0.998,0.998,0.998,0.889,0.889,0.889,0.889,0.889,0.284,0.284,0.284,0.284,0.284
1.155,1.155,1.155,1.155,1.155,0.896,0.896,0.896,0.896,0.896,0.944,0.944,0.944,0.944,0.944,0.921,0.921,0.921,0.921,0.921,0.919,0.919,0.919,0.919,0.919,0,0,0,0,0,0,0,0,0,0,1.355,1.355,1.355,1.355,1.355,1.341,1.341,1.341,1.341,1.341,0.28,0.28,0.28,0.28,0.28,1.128,1.128,1.128,1.128,1.128,0.881,0.881,0.881,0.881,0.881,0.927,0.927,0.927,0.927,0.927,0.967,0.967,0.967,0.967,0.967,0.898,0.898,0.898,0.898,0.898,0,0,0,0,0,0,0,0,0,0,1.456,1.456,1.456,1.456,1.456,1.402,1.402,1.402,1.402,1.402,0.268,0.268,0.268,0.268,0.268
0.982,0.982,0.982,0.982,0.982,0.915,0.915,0.915,0.915,0.915,0.894,0.894,0.894,0.894,0.894,0.988,0.988,0.988,0.988,0.988,0.872,0.872,0.872,0.872,0.872,0,0,0,0,0,0,0,0,0,0,0.979,0.979,0.979,0.979,0.979,0.89,0.89,0.89,0.89,0.89,0.266,0.266,0.266,0.266,0.266,0.949,0.949,0.949,0.949,0.949,0.923,0.923,0.923,0.923,0.923,0.953,0.953,0.953,0.953,0.953,0.941,0.941,0.941,0.941,0.941,0.906,0.906,0.906,0.906,0.906,0,0,0,0,0,0,0,0,0,0,0.953,0.953,0.953,0.953,0.953,0.953,0.953,0.953,0.953,0.953,0.257,0.257,0.257,0.257,0.257
0.99,0.99,0.99,0.99,0.99,0.928,0.928,0.928,0.928,0.928,0.877,0.877,0.877,0.877,0.877,0.959,0.959,0.959,0.959,0.959,0.977,0.977,0.977,0.977,0.977,0,0,0,0,0,0,0,0,0,0,1.023,1.023,1.023,1.023,1.023,0.927,0.927,0.927,0.927,0.927,0.27,0.27,0.27,0.27,0.27,1.015,1.015,1.015,1.015,1.015,0.906,0.906,0.906,0.906,0.906,0.939,0.939,0.939,0.939,0.939,0.955,0.955,0.955,0.955,0.955,0.893,0.893,0.893,0.893,0.893,0,0,0,0,0,0,0,0,0,0,0.961,0.961,0.961,0.961,0.961,0.93,0.93,0.93,0.93,0.93,0.28,0.28,0.28,0.28,0.28
0.945,0.945,0.945,0.945,0.945,0.87,0.87,0.87,0.87,0.87,0.94,0.94,0.94,0.94,0.94,0.938,0.938,0.938,0.938,0.938,1.246,1.246,1.246,1.246,1.246,0,0,0,0,0,0,0,0,0,0,1.005,1.005,1.005,1.005,1.005,0.879,0.879,0.879,0.879,0.879,0.284,0.284,0.284,0.284,0.284,1.007,1.007,1.007,1.007,1.007,0.91,0.91,0.91,0.91,0.91,0.938,0.938,0.938,0.938,0.938,0.972,0.972,0.972,0.972,0.972,1.232,1.232,1.232,1.232,1.232,0,0,0,0,0,0,0,0,0,0,0.957,0.957,0.957,0.957,0.957,0.869,0.869,0.869,0.869,0.869,0.274,0.274,0.274,0.274,0.274
0.949,0.949,0.949,0.949,0.949,0.874,0.874,0.874,0.874,0.874,0.903,0.903,0.903,0.903,0.903,0.913,0.913,0.913,0.913,0.913,1.184,1.184,1.184,1.184,1.184,0,0,0,0,0,0,0,0,0,0,0.945,0.945,0.945,0.945,0.945,0.927,0.927,0.927,0.927,0.927,0.274,0.274,0.274,0.274,0.274,0.941,0.941,0.941,0.941,0.941,0.898,0.898,0.898,0.898,0.898,0.885,0.885,0.885,0.885,0.885,0.916,0.916,0.916,0.916,0.916,1.247,1.247,1.247,1.247,1.247,0,0,0,0,0,0,0,0,0,0,1.038,1.038,1.038,1.038,1.038,0.944,0.944,0.944,0.944,0.944,0.273,0.273,0.273,0.273,0.273
0.992,0.992,0.992,0.992,0.992,0.908,0.908,0.908,0.908,0.908,0.868,0.868,0.868,0.868,0.868,0.989,0.989,0.989,0.989,0.989,1.202,1.202,1.202,1.202,1.202,0,0,0,0,0,0,0,0,0,0,0.966,0.966,0.966,0.966,0.966,0.924,0.924,0.924,0.924,0.924,0.271,0.271,0.271,0.271,0.271,1.034,1.034,1.034,1.034,1.034,0.904,0.904,0.904,0.904,0.904,0.95,0.95,0.95,0.95,0.95,0.98,0.98,0.98,0.98,0.98,1.214,1.214,1.214,1.214,1.214,0,0,0,0,0,0,0,0,0,0,0.968,0.968,0.968,0.968,0.968,0.948,0.948,0.948,0.948,0.948,0.265,0.265,0.265,0.265,0.265
0.975,0.975,0.975,0.975,0.975,0.945,0.945,0.945,0.945,0.945,0.896,0.896,0.896,0.896,0.896,0.93,0.93,0.93,0.93,0.93,1.175,1.175,1.175,1.175,1.175,0,0,0,0,0,0,0,0,0,0,1.031,1.031,1.031,1.031,1.031,0.891,0.891,0.891,0.891,0.891,0.256,0.256,0.256,0.256,0.256,0.957,0.957,0.957,0.957,0.957,0.865,0.865,0.865,0.865,0.865,0.952,0.952,0.952,0.952,0.952,1.005,1.005,1.005,1.005,1.005,1.168,1.168,1.168,1.168,1.168,0,0,0,0,0,0,0,0,0,0,0.981,0.981,0.981,0.981,0.981,0.901,0.901,0.901,0.901,0.901,0.272,0.272,0.272,0.272,0.272
0.935,0.935,0.935,0.935,0.935,0.877,0.877,0.877,0.877,0.877,0.926,0.926,0.926,0.926,0.926,0.919,0.919,0.919,0.919,0.919,1.213,1.213,1.213,1.213,1.213,0,0,0,0,0,0,0,0,0,0,0.983,0.983,0.983,0.983,0.983,0.885,0.885,0.885,0.885,0.885,0.563,0.563,0.563,0.563,0.563,0.949,0.949,0.949,0.949,0.949,0.894,0.894,0.894,0.894,0.894,0.912,0.912,0.912,0.912,0.912,0.952,0.952,0.952,0.952,0.952,1.186,1.186,1.186,1.186,1.186,0,0,0,0,0,0,0,0,0,0,0.982,0.982,0.982,0.982,0.982,0.951,0.951,0.951,0.951,0.951,0.549,0.549,0.549,0.549,0.549
0.958,0.958,0.958,0.958,0.958,0.871,0.871,0.871,0.871,0.871,0.948,0.948,0.948,0.948,0.948,0.894,0.894,0.894,0.894,0.894,1.186,1.186,1.186,1.186,1.186,0,0,0,0,0,0,0,0,0,0,1.047,1.047,1.047,1.047,1.047,0.919,0.919,0.919,0.919,0.919,0.869,0.869,0.869,0.869,0.869,0.967,0.967,0.967,0.967,0.967,0.884,0.884,0.884,0.884,0.884,0.966,0.966,0.966,0.966,0.966,0.97,0.97,0.97,0.97,0.97,1.19,1.19,1.19,1.19,1.19,0,0,0,0,0,0,0,0,0,0,0.968,0.968,0.968,0.968,0.968,0.933,0.933,0.933,0.933,0.933,0.858,0.858,0.858,0.858,0.858
0.916,0.916,0.916,0.916,0.916,0.855,0.855,0.855,0.855,0.855,0.933,0.933,0.933,0.933,0.933,0.983,0.983,0.983,0.983,0.983,1.211,1.211,1.211,1.211,1.211,0,0,0,0,0,0,0,0,0,0,0.96,0.96,0.96,0.96,0.96,0.894,0.894,0.894,0.894,0.894,1.069,1.069,1.069,1.069,1.069,0.927,0.927,0.927,0.927,0.927,0.888,0.888,0.888,0.888,0.888,0.869,0.869,0.869,0.869,0.869,1.008,1.008,1.008,1.008,1.008,1.275,1.275,1.275,1.275,1.275,0,0,0,0,0,0,0,0,0,0,0.981,0.981,0.981,0.981,0.981,0.908,0.908,0.908,0.908,0.908,1.007,1.007,1.007,1.007,1.007
1.095,1.095,1.095,1.095,1.095,0.893,0.893,0.893,0.893,0.893,0.951,0.951,0.951,0.951,0.951,0.935,0.935,0.935,0.935,0.935,1.229,1.229,1.229,1.229,1.229,0,0,0,0,0,0,0,0,0,0,1.261,1.261,1.261,1.261,1.261,1.187,1.187,1.187,1.187,1.187,1.263,1.263,1.263,1.263,1.263,1.013,1.013,1.013,1.013,1.013,0.903,0.903,0.903,0.903,0.903,0.847,0.847,0.847,0.847,0.847,0.946,0.946,0.946,0.946,0.946,1.202,1.202,1.202,1.202,1.202,0,0,0,0,0,0,0,0,0,0,1.268,1.268,1.268,1.268,1.268,1.226,1.226,1.226,1.226,1.226,1.193,1.193,1.193,1.193,1.193
1.045,1.045,1.045,1.045,1.045,0.921,0.921,0.921,0.921,0.921,0.942,0.942,0.942,0.942,0.942,0.963,0.963,0.963,0.963,0.963,1.219,1.219,1.219,1.219,1.219,0,0,0,0,0,0,0,0,0,0,1.033,1.033,1.033,1.033,1.033,1.083,1.083,1.083,1.083,1.083,1.472,1.472,1.472,1.472,1.472,0.95,0.95,0.95,0.95,0.95,0.907,0.907,0.907,0.907,0.907,0.905,0.905,0.905,0.905,0.905,0.971,0.971,0.971,0.971,0.971,1.206,1.206,1.206,1.206,1.206,0,0,0,0,0,0,0,0,0,0,1.083,1.083,1.083,1.083,1.083,0.997,0.997,0.997,0.997,0.997,1.533,1.533,1.533,1.533,1.533
0.935,0.935,0.935,0.935,0.935,0.866,0.866,0.866,0.866,0.866,0.88,0.88,0.88,0.88,0.88,1.028,1.028,1.028,1.028,1.028,1.257,1.257,1.257,1.257,1.257,0,0,0,0,0,0,0,0,0,0,0.974,0.974,0.974,0.974,0.974,0.913,0.913,0.913,0.913,0.913,1.712,1.712,1.712,1.712,1.712,0.943,0.943,0.943,0.943,0.943,0.896,0.896,0.896,0.896,0.896,0.846,0.846,0.846,0.846,0.846,0.985,0.985,0.985,0.985,0.985,1.211,1.211,1.211,1.211,1.211,0,0,0,0,0,0,0,0,0,0,0.967,0.967,0.967,0.967,0.967,0.873,0.873,0.873,0.873,0.873,1.689,1.689,1.689,1.689,1.689
0.888,0.888,0.888,0.888,0.888,0.871,0.871,0.871,0.871,0.871,0.945,0.945,0.945,0.945,0.945,1.027,1.027,1.027,1.027,1.027,0.914,0.914,0.914,0.914,0.914,0,0,0,0,0,0,0,0,0,0,0.855,0.855,0.855,0.855,0.855,0.748,0.748,0.748,0.748,0.748,1.632,1.632,1.632,1.632,1.632,0.891,0.891,0.891,0.891,0.891,0.855,0.855,0.855,0.855,0.855,0.933,0.933,0.933,0.933,0.933,0.983,0.983,0.983,0.983,0.983,0.902,0.902,0.902,0.902,0.902,0,0,0,0,0,0,0,0,0,0,0.88,0.88,0.88,0.88,0.88,0.725,0.725,0.725,0.725,0.725,1.599,1.599,1.599,1.599,1.599
